CPU/Part 4/cpu_wavedata.vcd
$date
	Fri Feb 18 20:54:22 2022
$end
$version
	Icarus Verilog
$end
$timescale
	1s
$end
$scope module cpu_tb $end
$scope module mycpu $end
$scope module regfile $end
$var reg 8 ! \registers[0] [7:0] $end
$upscope $end
$upscope $end
$upscope $end
$scope module cpu_tb $end
$scope module mycpu $end
$scope module regfile $end
$var reg 8 " \registers[1] [7:0] $end
$upscope $end
$upscope $end
$upscope $end
$scope module cpu_tb $end
$scope module mycpu $end
$scope module regfile $end
$var reg 8 # \registers[2] [7:0] $end
$upscope $end
$upscope $end
$upscope $end
$scope module cpu_tb $end
$scope module mycpu $end
$scope module regfile $end
$var reg 8 $ \registers[3] [7:0] $end
$upscope $end
$upscope $end
$upscope $end
$scope module cpu_tb $end
$scope module mycpu $end
$scope module regfile $end
$var reg 8 % \registers[4] [7:0] $end
$upscope $end
$upscope $end
$upscope $end
$scope module cpu_tb $end
$scope module mycpu $end
$scope module regfile $end
$var reg 8 & \registers[5] [7:0] $end
$upscope $end
$upscope $end
$upscope $end
$scope module cpu_tb $end
$scope module mycpu $end
$scope module regfile $end
$var reg 8 ' \registers[6] [7:0] $end
$upscope $end
$upscope $end
$upscope $end
$scope module cpu_tb $end
$scope module mycpu $end
$scope module regfile $end
$var reg 8 ( \registers[7] [7:0] $end
$upscope $end
$upscope $end
$upscope $end
$scope module cpu_tb $end
$var wire 32 ) PC [31:0] $end
$var reg 1 * CLK $end
$var reg 32 + INSTRUCTION [31:0] $end
$var reg 1 , RESET $end
$scope module mycpu $end
$var wire 1 * CLK $end
$var wire 32 - INSTRUCTION [31:0] $end
$var wire 1 , RESET $end
$var wire 8 . negative [7:0] $end
$var wire 1 / ZERO $end
$var wire 1 0 WRITEENABLE $end
$var wire 8 1 ToMUX2 [7:0] $end
$var wire 1 2 SIGN $end
$var wire 32 3 SHIFTED [31:0] $end
$var wire 8 4 REGOUT2 [7:0] $end
$var wire 8 5 REGOUT1 [7:0] $end
$var wire 32 6 PC_VAL [31:0] $end
$var wire 2 7 PC_SELECTOR [1:0] $end
$var wire 32 8 PC [31:0] $end
$var wire 1 9 IMMEDIATE $end
$var wire 32 : EXTENDED [31:0] $end
$var wire 8 ; ALUOUT [7:0] $end
$var wire 3 < ALUOP [2:0] $end
$var wire 8 = ALUIN1 [7:0] $end
$var reg 8 > IMMEDIATEVal [7:0] $end
$var reg 8 ? OFFSET [7:0] $end
$var reg 8 @ OPCODE [7:0] $end
$var reg 3 A READREG1 [2:0] $end
$var reg 3 B READREG2 [2:0] $end
$var reg 3 C WRITEREG [2:0] $end
$scope module ALU1 $end
$var wire 8 D temp4 [7:0] $end
$var wire 8 E temp5 [7:0] $end
$var wire 8 F temp6 [7:0] $end
$var wire 8 G temp7 [7:0] $end
$var wire 8 H temp3 [7:0] $end
$var wire 8 I temp2 [7:0] $end
$var wire 8 J temp1 [7:0] $end
$var wire 8 K temp0 [7:0] $end
$var wire 3 L SELECT [2:0] $end
$var wire 8 M RESULT [7:0] $end
$var wire 8 N DATA2 [7:0] $end
$var wire 8 O DATA1 [7:0] $end
$var reg 1 / ZERO $end
$scope module ADD1 $end
$var wire 8 P result [7:0] $end
$var wire 8 Q data2 [7:0] $end
$var wire 8 R data1 [7:0] $end
$upscope $end
$scope module AND1 $end
$var wire 8 S result [7:0] $end
$var wire 8 T data2 [7:0] $end
$var wire 8 U data1 [7:0] $end
$upscope $end
$scope module FORWARD1 $end
$var wire 8 V result [7:0] $end
$var wire 8 W data [7:0] $end
$upscope $end
$scope module Mux $end
$var wire 8 X D0 [7:0] $end
$var wire 8 Y D1 [7:0] $end
$var wire 8 Z D2 [7:0] $end
$var wire 8 [ D4 [7:0] $end
$var wire 8 \ D5 [7:0] $end
$var wire 8 ] D6 [7:0] $end
$var wire 8 ^ D7 [7:0] $end
$var wire 3 _ Select [2:0] $end
$var wire 8 ` D3 [7:0] $end
$var reg 8 a out [7:0] $end
$upscope $end
$scope module OR1 $end
$var wire 8 b result [7:0] $end
$var wire 8 c data2 [7:0] $end
$var wire 8 d data1 [7:0] $end
$upscope $end
$upscope $end
$scope module control $end
$var wire 8 e OPCODE [7:0] $end
$var reg 3 f ALUOP [2:0] $end
$var reg 1 9 IMMEDIATE $end
$var reg 2 g PC_SELECTOR [1:0] $end
$var reg 1 2 SIGN $end
$var reg 1 0 WRITEENABLE $end
$upscope $end
$scope module mux4Ime $end
$var wire 8 h data2 [7:0] $end
$var wire 1 9 select $end
$var wire 8 i data1 [7:0] $end
$var reg 8 j result [7:0] $end
$upscope $end
$scope module mux4sign $end
$var wire 1 2 select $end
$var wire 8 k data2 [7:0] $end
$var wire 8 l data1 [7:0] $end
$var reg 8 m result [7:0] $end
$upscope $end
$scope module pc1 $end
$var wire 1 * CLK $end
$var wire 1 , RESET $end
$var wire 32 n PC_VAL [31:0] $end
$var reg 32 o PC [31:0] $end
$upscope $end
$scope module regfile $end
$var wire 1 * CLK $end
$var wire 8 p IN [7:0] $end
$var wire 3 q INADDRESS [2:0] $end
$var wire 3 r OUT1ADDRESS [2:0] $end
$var wire 3 s OUT2ADDRESS [2:0] $end
$var wire 1 , RESET $end
$var wire 1 0 WRITE $end
$var reg 8 t OUT1 [7:0] $end
$var reg 8 u OUT2 [7:0] $end
$var integer 32 v i [31:0] $end
$var integer 32 w j [31:0] $end
$upscope $end
$scope module shiftLeft1 $end
$var wire 32 x shifted [31:0] $end
$var wire 32 y shift [31:0] $end
$upscope $end
$scope module signEx1 $end
$var wire 8 z toExtend [7:0] $end
$var reg 32 { extended [31:0] $end
$upscope $end
$scope module target1 $end
$var wire 32 | EXTENDED_OFFSET [31:0] $end
$var wire 32 } PC [31:0] $end
$var wire 2 ~ PCSELECTOR [1:0] $end
$var wire 1 / ZERO $end
$var reg 32 !" PC_VAL [31:0] $end
$upscope $end
$scope module twos_comp1 $end
$var wire 8 "" unsign [7:0] $end
$var reg 8 #" sign [7:0] $end
$upscope $end
$upscope $end
$upscope $end
$enddefinitions $end
#0
$dumpvars
bx #"
bx ""
bx !"
bx ~
bx }
bx00 |
bx {
bx z
bx y
bx00 x
b1000 w
bx v
bx u
bx t
bx s
bx r
bx q
bx p
bx o
bx n
bx m
bx l
bx k
bx j
bx i
bx h
bx g
bx f
bx e
bx d
bx c
bx b
bx a
bx `
bx _
bz ^
bz ]
bz \
bz [
bx Z
bx Y
bx X
bx W
bx V
bx U
bx T
bx S
bx R
bx Q
bx P
bx O
bx N
bx M
bx L
bx K
bx J
bx I
bx H
bz G
bz F
bz E
bz D
bx C
bx B
bx A
bx @
bx ?
bx >
bx =
bx <
bx ;
bx :
x9
bx 8
bx 7
bx 6
bx 5
bx 4
bx00 3
x2
bx 1
x0
0/
bx .
bx -
1,
bx +
0*
bx )
bx (
bx '
bx &
bx %
bx $
bx #
bx "
bx !
$end
#4
1*
#5
b0 (
b0 '
b0 &
b0 %
b0 $
b0 #
b0 "
b0 !
b100 6
b100 n
b100 !"
b0 )
b0 8
b0 o
b0 }
b1000 v
#7
b10000 3
b10000 x
b10000 |
b100 :
b100 y
b100 {
b100 ?
b100 z
b1010 >
b1010 h
b10 B
b10 s
b0 A
b0 r
b100 C
b100 q
b0 @
b0 e
b1000000000000001010 +
b1000000000000001010 -
#8
b1010 =
b1010 N
b1010 Q
b1010 T
b1010 W
b1010 c
b1010 j
b0 7
b0 g
b0 ~
19
10
02
b0 <
b0 L
b0 _
b0 f
0*
#9
b0 1
b0 i
b0 m
b0 4
b0 l
b0 u
b0 ""
b0 5
b0 O
b0 R
b0 U
b0 d
b0 t
bx1x1x H
bx1x1x `
bx1x1x b
b0x0x0 I
b0x0x0 S
b0x0x0 Z
b1010 ;
b1010 M
b1010 a
b1010 p
b1010 K
b1010 V
b1010 X
#10
b0 .
b0 k
b0 #"
b1010 H
b1010 `
b1010 b
b0 I
b0 S
b0 Z
0,
#11
b1010 J
b1010 P
b1010 Y
#12
1*
#13
b1010 %
b1000 6
b1000 n
b1000 !"
b100 )
b100 8
b100 o
b100 }
#15
b10100 3
b10100 x
b10100 |
b101 :
b101 y
b101 {
b101 ?
b101 z
b1 =
b1 N
b1 Q
b1 T
b1 W
b1 c
b1 j
b1 >
b1 h
b1 B
b1 s
b101 C
b101 q
b1010000000000000001 +
b1010000000000000001 -
#16
b1 H
b1 `
b1 b
b1 ;
b1 M
b1 a
b1 p
b1 K
b1 V
b1 X
0*
#17
b1 J
b1 P
b1 Y
#20
1*
#21
b1 &
b1100 6
b1100 n
b1100 !"
b1000 )
b1000 8
b1000 o
b1000 }
#23
b11000 3
b11000 x
b11000 |
b110 :
b110 y
b110 {
b110 ?
b110 z
b110 C
b110 q
b1100000000000000001 +
b1100000000000000001 -
#24
0*
#28
1*
#29
b1 '
b10000 6
b10000 n
b10000 !"
b1100 )
b1100 8
b1100 o
b1100 }
#31
b11100 3
b11100 x
b11100 |
b111 :
b111 y
b111 {
b111 ?
b111 z
b1001 =
b1001 N
b1001 Q
b1001 T
b1001 W
b1001 c
b1001 j
b1001 >
b1001 h
b111 C
b111 q
b1110000000000001001 +
b1110000000000001001 -
#32
b1001 H
b1001 `
b1001 b
b1001 ;
b1001 M
b1001 a
b1001 p
b1001 K
b1001 V
b1001 X
0*
#33
b1001 J
b1001 P
b1001 Y
#36
1*
#37
b1001 (
b10100 6
b10100 n
b10100 !"
b10000 )
b10000 8
b10000 o
b10000 }
#39
b10000 3
b10000 x
b10000 |
b100 :
b100 y
b100 {
b100 ?
b100 z
b101 =
b101 N
b101 Q
b101 T
b101 W
b101 c
b101 j
b101 >
b101 h
b101 B
b101 s
b100 A
b100 r
b100 C
b100 q
b11 @
b11 e
b11000001000000010000000101 +
b11000001000000010000000101 -
#40
b0 =
b0 N
b0 Q
b0 T
b0 W
b0 c
b0 j
b101 H
b101 `
b101 b
09
12
b1 <
b1 L
b1 _
b1 f
b1001 ;
b1001 M
b1001 a
b1001 p
b101 K
b101 V
b101 X
0*
#41
b1 4
b1 l
b1 u
b1 ""
b1010 5
b1010 O
b1010 R
b1010 U
b1010 d
b1010 t
b0 H
b0 `
b0 b
b0 K
b0 V
b0 X
#42
b11111111 =
b11111111 N
b11111111 Q
b11111111 T
b11111111 W
b11111111 c
b11111111 j
b11111111 1
b11111111 i
b11111111 m
b11111111 .
b11111111 k
b11111111 #"
b1010 H
b1010 `
b1010 b
#43
b11111111 H
b11111111 `
b11111111 b
b1010 I
b1010 S
b1010 Z
b11111111 K
b11111111 V
b11111111 X
#44
1*
#45
b1001 %
b11000 6
b11000 n
b11000 !"
b10100 )
b10100 8
b10100 o
b10100 }
#47
b100 3
b100 x
b100 |
b1 :
b1 y
b1 {
b1001 5
b1001 O
b1001 R
b1001 U
b1001 d
b1001 t
b1 ?
b1 z
b110 >
b110 h
b110 B
b110 s
b1 C
b1 q
b111 @
b111 e
b111000000010000010000000110 +
b111000000010000010000000110 -
#48
b1001 I
b1001 S
b1001 Z
b1 7
b1 g
b1 ~
00
0*
#49
b1000 ;
b1000 M
b1000 a
b1000 p
b1000 J
b1000 P
b1000 Y
#52
1*
#53
b11100 6
b11100 n
b11100 !"
b11000 )
b11000 8
b11000 o
b11000 }
#55
b11111111111111111111111111110100 3
b11111111111111111111111111110100 x
b11111111111111111111111111110100 |
b111111111111111111111111111101 :
b111111111111111111111111111101 y
b111111111111111111111111111101 {
b11111101 ?
b11111101 z
b0 >
b0 h
b0 B
b0 s
b0 A
b0 r
b101 C
b101 q
b110 @
b110 e
b110111111010000000000000000 +
b110111111010000000000000000 -
#56
b1 =
b1 N
b1 Q
b1 T
b1 W
b1 c
b1 j
b1 1
b1 i
b1 m
b10 7
b10 g
b10 ~
02
0*
#57
b0 =
b0 N
b0 Q
b0 T
b0 W
b0 c
b0 j
b0 1
b0 i
b0 m
b0 4
b0 l
b0 u
b0 ""
b0 5
b0 O
b0 R
b0 U
b0 d
b0 t
b1001 H
b1001 `
b1001 b
b1 I
b1 S
b1 Z
b1 K
b1 V
b1 X
#58
b0 .
b0 k
b0 #"
b0 H
b0 `
b0 b
b0 I
b0 S
b0 Z
b0 K
b0 V
b0 X
b10000 6
b10000 n
b10000 !"
#59
1/
b0 ;
b0 M
b0 a
b0 p
b0 J
b0 P
b0 Y
#60
1*
#61
b10000 )
b10000 8
b10000 o
b10000 }
#63
b10000 3
b10000 x
b10000 |
b100 :
b100 y
b100 {
b100 ?
b100 z
b101 >
b101 h
b101 B
b101 s
b100 A
b100 r
b100 C
b100 q
b11 @
b11 e
b1000 6
b1000 n
b1000 !"
b11000001000000010000000101 +
b11000001000000010000000101 -
#64
b0 7
b0 g
b0 ~
10
12
0*
#65
b1 4
b1 l
b1 u
b1 ""
b1001 5
b1001 O
b1001 R
b1001 U
b1001 d
b1001 t
b100100 6
b100100 n
b100100 !"
#66
b11111111 =
b11111111 N
b11111111 Q
b11111111 T
b11111111 W
b11111111 c
b11111111 j
b11111111 1
b11111111 i
b11111111 m
b11111111 .
b11111111 k
b11111111 #"
b1001 H
b1001 `
b1001 b
#67
b11111111 H
b11111111 `
b11111111 b
b1001 I
b1001 S
b1001 Z
b11111111 K
b11111111 V
b11111111 X
#68
b10100 6
b10100 n
b10100 !"
0/
b1000 ;
b1000 M
b1000 a
b1000 p
b1000 J
b1000 P
b1000 Y
1*
#69
b1000 %
b11000 6
b11000 n
b11000 !"
b10100 )
b10100 8
b10100 o
b10100 }
#71
b100 3
b100 x
b100 |
b1 :
b1 y
b1 {
b1000 5
b1000 O
b1000 R
b1000 U
b1000 d
b1000 t
b1 ?
b1 z
b110 >
b110 h
b110 B
b110 s
b1 C
b1 q
b111 @
b111 e
b111000000010000010000000110 +
b111000000010000010000000110 -
#72
b1000 I
b1000 S
b1000 Z
b1 7
b1 g
b1 ~
00
0*
#73
b111 ;
b111 M
b111 a
b111 p
b111 J
b111 P
b111 Y
#76
1*
#77
b11100 6
b11100 n
b11100 !"
b11000 )
b11000 8
b11000 o
b11000 }
#79
b11111111111111111111111111110100 3
b11111111111111111111111111110100 x
b11111111111111111111111111110100 |
b111111111111111111111111111101 :
b111111111111111111111111111101 y
b111111111111111111111111111101 {
b11111101 ?
b11111101 z
b0 >
b0 h
b0 B
b0 s
b0 A
b0 r
b101 C
b101 q
b110 @
b110 e
b110111111010000000000000000 +
b110111111010000000000000000 -
#80
b1 =
b1 N
b1 Q
b1 T
b1 W
b1 c
b1 j
b1 1
b1 i
b1 m
b10 7
b10 g
b10 ~
02
0*
#81
b0 =
b0 N
b0 Q
b0 T
b0 W
b0 c
b0 j
b0 1
b0 i
b0 m
b0 4
b0 l
b0 u
b0 ""
b0 5
b0 O
b0 R
b0 U
b0 d
b0 t
b1001 H
b1001 `
b1001 b
b0 I
b0 S
b0 Z
b1 K
b1 V
b1 X
#82
b0 .
b0 k
b0 #"
b0 H
b0 `
b0 b
b0 K
b0 V
b0 X
b10000 6
b10000 n
b10000 !"
#83
1/
b0 ;
b0 M
b0 a
b0 p
b0 J
b0 P
b0 Y
#84
1*
#85
b10000 )
b10000 8
b10000 o
b10000 }
#87
b10000 3
b10000 x
b10000 |
b100 :
b100 y
b100 {
b100 ?
b100 z
b101 >
b101 h
b101 B
b101 s
b100 A
b100 r
b100 C
b100 q
b11 @
b11 e
b1000 6
b1000 n
b1000 !"
b11000001000000010000000101 +
b11000001000000010000000101 -
#88
b0 7
b0 g
b0 ~
10
12
0*
#89
b1 4
b1 l
b1 u
b1 ""
b1000 5
b1000 O
b1000 R
b1000 U
b1000 d
b1000 t
b100100 6
b100100 n
b100100 !"
#90
b11111111 =
b11111111 N
b11111111 Q
b11111111 T
b11111111 W
b11111111 c
b11111111 j
b11111111 1
b11111111 i
b11111111 m
b11111111 .
b11111111 k
b11111111 #"
b1000 H
b1000 `
b1000 b
#91
b11111111 H
b11111111 `
b11111111 b
b1000 I
b1000 S
b1000 Z
b11111111 K
b11111111 V
b11111111 X
#92
b10100 6
b10100 n
b10100 !"
0/
b111 ;
b111 M
b111 a
b111 p
b111 J
b111 P
b111 Y
1*
#93
b111 %
b11000 6
b11000 n
b11000 !"
b10100 )
b10100 8
b10100 o
b10100 }
#95
b100 3
b100 x
b100 |
b1 :
b1 y
b1 {
b111 5
b111 O
b111 R
b111 U
b111 d
b111 t
b1 ?
b1 z
b110 >
b110 h
b110 B
b110 s
b1 C
b1 q
b111 @
b111 e
b111000000010000010000000110 +
b111000000010000010000000110 -
#96
b111 I
b111 S
b111 Z
b1 7
b1 g
b1 ~
00
0*
#97
b110 ;
b110 M
b110 a
b110 p
b110 J
b110 P
b110 Y
#100
1*
#101
b11100 6
b11100 n
b11100 !"
b11000 )
b11000 8
b11000 o
b11000 }
#103
b11111111111111111111111111110100 3
b11111111111111111111111111110100 x
b11111111111111111111111111110100 |
b111111111111111111111111111101 :
b111111111111111111111111111101 y
b111111111111111111111111111101 {
b11111101 ?
b11111101 z
b0 >
b0 h
b0 B
b0 s
b0 A
b0 r
b101 C
b101 q
b110 @
b110 e
b110111111010000000000000000 +
b110111111010000000000000000 -
#104
b1 =
b1 N
b1 Q
b1 T
b1 W
b1 c
b1 j
b1 1
b1 i
b1 m
b10 7
b10 g
b10 ~
02
0*
#105
b0 =
b0 N
b0 Q
b0 T
b0 W
b0 c
b0 j
b0 1
b0 i
b0 m
b0 4
b0 l
b0 u
b0 ""
b0 5
b0 O
b0 R
b0 U
b0 d
b0 t
b111 H
b111 `
b111 b
b1 I
b1 S
b1 Z
b1 K
b1 V
b1 X
#106
b0 .
b0 k
b0 #"
b0 H
b0 `
b0 b
b0 I
b0 S
b0 Z
b0 K
b0 V
b0 X
b10000 6
b10000 n
b10000 !"
#107
1/
b0 ;
b0 M
b0 a
b0 p
b0 J
b0 P
b0 Y
#108
1*
#109
b10000 )
b10000 8
b10000 o
b10000 }
#111
b10000 3
b10000 x
b10000 |
b100 :
b100 y
b100 {
b100 ?
b100 z
b101 >
b101 h
b101 B
b101 s
b100 A
b100 r
b100 C
b100 q
b11 @
b11 e
b1000 6
b1000 n
b1000 !"
b11000001000000010000000101 +
b11000001000000010000000101 -
#112
b0 7
b0 g
b0 ~
10
12
0*
#113
b1 4
b1 l
b1 u
b1 ""
b111 5
b111 O
b111 R
b111 U
b111 d
b111 t
b100100 6
b100100 n
b100100 !"
#114
b11111111 =
b11111111 N
b11111111 Q
b11111111 T
b11111111 W
b11111111 c
b11111111 j
b11111111 1
b11111111 i
b11111111 m
b11111111 .
b11111111 k
b11111111 #"
b111 H
b111 `
b111 b
#115
b11111111 H
b11111111 `
b11111111 b
b111 I
b111 S
b111 Z
b11111111 K
b11111111 V
b11111111 X
#116
b10100 6
b10100 n
b10100 !"
0/
b110 ;
b110 M
b110 a
b110 p
b110 J
b110 P
b110 Y
1*
#117
b110 %
b11000 6
b11000 n
b11000 !"
b10100 )
b10100 8
b10100 o
b10100 }
#119
b100 3
b100 x
b100 |
b1 :
b1 y
b1 {
b110 5
b110 O
b110 R
b110 U
b110 d
b110 t
b1 ?
b1 z
b110 >
b110 h
b110 B
b110 s
b1 C
b1 q
b111 @
b111 e
b111000000010000010000000110 +
b111000000010000010000000110 -
#120
b110 I
b110 S
b110 Z
b1 7
b1 g
b1 ~
00
0*
#121
b101 ;
b101 M
b101 a
b101 p
b101 J
b101 P
b101 Y
#124
1*
#125
b11100 6
b11100 n
b11100 !"
b11000 )
b11000 8
b11000 o
b11000 }
#127
b11111111111111111111111111110100 3
b11111111111111111111111111110100 x
b11111111111111111111111111110100 |
b111111111111111111111111111101 :
b111111111111111111111111111101 y
b111111111111111111111111111101 {
b11111101 ?
b11111101 z
b0 >
b0 h
b0 B
b0 s
b0 A
b0 r
b101 C
b101 q
b110 @
b110 e
b110111111010000000000000000 +
b110111111010000000000000000 -
#128
b1 =
b1 N
b1 Q
b1 T
b1 W
b1 c
b1 j
b1 1
b1 i
b1 m
b10 7
b10 g
b10 ~
02
0*
#129
b0 =
b0 N
b0 Q
b0 T
b0 W
b0 c
b0 j
b0 1
b0 i
b0 m
b0 4
b0 l
b0 u
b0 ""
b0 5
b0 O
b0 R
b0 U
b0 d
b0 t
b111 H
b111 `
b111 b
b0 I
b0 S
b0 Z
b1 K
b1 V
b1 X
#130
b0 .
b0 k
b0 #"
b0 H
b0 `
b0 b
b0 K
b0 V
b0 X
b10000 6
b10000 n
b10000 !"
#131
1/
b0 ;
b0 M
b0 a
b0 p
b0 J
b0 P
b0 Y
#132
1*
#133
b10000 )
b10000 8
b10000 o
b10000 }
#135
b10000 3
b10000 x
b10000 |
b100 :
b100 y
b100 {
b100 ?
b100 z
b101 >
b101 h
b101 B
b101 s
b100 A
b100 r
b100 C
b100 q
b11 @
b11 e
b1000 6
b1000 n
b1000 !"
b11000001000000010000000101 +
b11000001000000010000000101 -
#136
b0 7
b0 g
b0 ~
10
12
0*
#137
b1 4
b1 l
b1 u
b1 ""
b110 5
b110 O
b110 R
b110 U
b110 d
b110 t
b100100 6
b100100 n
b100100 !"
#138
b11111111 =
b11111111 N
b11111111 Q
b11111111 T
b11111111 W
b11111111 c
b11111111 j
b11111111 1
b11111111 i
b11111111 m
b11111111 .
b11111111 k
b11111111 #"
b110 H
b110 `
b110 b
#139
b11111111 H
b11111111 `
b11111111 b
b110 I
b110 S
b110 Z
b11111111 K
b11111111 V
b11111111 X
#140
b10100 6
b10100 n
b10100 !"
0/
b101 ;
b101 M
b101 a
b101 p
b101 J
b101 P
b101 Y
1*
#141
b101 %
b11000 6
b11000 n
b11000 !"
b10100 )
b10100 8
b10100 o
b10100 }
#143
b100 3
b100 x
b100 |
b1 :
b1 y
b1 {
b101 5
b101 O
b101 R
b101 U
b101 d
b101 t
b1 ?
b1 z
b110 >
b110 h
b110 B
b110 s
b1 C
b1 q
b111 @
b111 e
b111000000010000010000000110 +
b111000000010000010000000110 -
#144
b101 I
b101 S
b101 Z
b1 7
b1 g
b1 ~
00
0*
#145
b100 ;
b100 M
b100 a
b100 p
b100 J
b100 P
b100 Y
#148
1*
#149
b11100 6
b11100 n
b11100 !"
b11000 )
b11000 8
b11000 o
b11000 }
#151
b11111111111111111111111111110100 3
b11111111111111111111111111110100 x
b11111111111111111111111111110100 |
b111111111111111111111111111101 :
b111111111111111111111111111101 y
b111111111111111111111111111101 {
b11111101 ?
b11111101 z
b0 >
b0 h
b0 B
b0 s
b0 A
b0 r
b101 C
b101 q
b110 @
b110 e
b110111111010000000000000000 +
b110111111010000000000000000 -
#152
b1 =
b1 N
b1 Q
b1 T
b1 W
b1 c
b1 j
b1 1
b1 i
b1 m
b10 7
b10 g
b10 ~
02
0*
#153
b0 =
b0 N
b0 Q
b0 T
b0 W
b0 c
b0 j
b0 1
b0 i
b0 m
b0 4
b0 l
b0 u
b0 ""
b0 5
b0 O
b0 R
b0 U
b0 d
b0 t
b101 H
b101 `
b101 b
b1 I
b1 S
b1 Z
b1 K
b1 V
b1 X
#154
b0 .
b0 k
b0 #"
b0 H
b0 `
b0 b
b0 I
b0 S
b0 Z
b0 K
b0 V
b0 X
b10000 6
b10000 n
b10000 !"
#155
1/
b0 ;
b0 M
b0 a
b0 p
b0 J
b0 P
b0 Y
#156
1*
#157
b10000 )
b10000 8
b10000 o
b10000 }
#159
b10000 3
b10000 x
b10000 |
b100 :
b100 y
b100 {
b100 ?
b100 z
b101 >
b101 h
b101 B
b101 s
b100 A
b100 r
b100 C
b100 q
b11 @
b11 e
b1000 6
b1000 n
b1000 !"
b11000001000000010000000101 +
b11000001000000010000000101 -
#160
b0 7
b0 g
b0 ~
10
12
0*
#161
b1 4
b1 l
b1 u
b1 ""
b101 5
b101 O
b101 R
b101 U
b101 d
b101 t
b100100 6
b100100 n
b100100 !"
#162
b11111111 =
b11111111 N
b11111111 Q
b11111111 T
b11111111 W
b11111111 c
b11111111 j
b11111111 1
b11111111 i
b11111111 m
b11111111 .
b11111111 k
b11111111 #"
b101 H
b101 `
b101 b
#163
b11111111 H
b11111111 `
b11111111 b
b101 I
b101 S
b101 Z
b11111111 K
b11111111 V
b11111111 X
#164
b10100 6
b10100 n
b10100 !"
0/
b100 ;
b100 M
b100 a
b100 p
b100 J
b100 P
b100 Y
1*
#165
b100 %
b11000 6
b11000 n
b11000 !"
b10100 )
b10100 8
b10100 o
b10100 }
#167
b100 3
b100 x
b100 |
b1 :
b1 y
b1 {
b100 5
b100 O
b100 R
b100 U
b100 d
b100 t
b1 ?
b1 z
b110 >
b110 h
b110 B
b110 s
b1 C
b1 q
b111 @
b111 e
b111000000010000010000000110 +
b111000000010000010000000110 -
#168
b100 I
b100 S
b100 Z
b1 7
b1 g
b1 ~
00
0*
#169
b11 ;
b11 M
b11 a
b11 p
b11 J
b11 P
b11 Y
#172
1*
#173
b11100 6
b11100 n
b11100 !"
b11000 )
b11000 8
b11000 o
b11000 }
#175
b11111111111111111111111111110100 3
b11111111111111111111111111110100 x
b11111111111111111111111111110100 |
b111111111111111111111111111101 :
b111111111111111111111111111101 y
b111111111111111111111111111101 {
b11111101 ?
b11111101 z
b0 >
b0 h
b0 B
b0 s
b0 A
b0 r
b101 C
b101 q
b110 @
b110 e
b110111111010000000000000000 +
b110111111010000000000000000 -
#176
b1 =
b1 N
b1 Q
b1 T
b1 W
b1 c
b1 j
b1 1
b1 i
b1 m
b10 7
b10 g
b10 ~
02
0*
#177
b0 =
b0 N
b0 Q
b0 T
b0 W
b0 c
b0 j
b0 1
b0 i
b0 m
b0 4
b0 l
b0 u
b0 ""
b0 5
b0 O
b0 R
b0 U
b0 d
b0 t
b101 H
b101 `
b101 b
b0 I
b0 S
b0 Z
b1 K
b1 V
b1 X
#178
b0 .
b0 k
b0 #"
b0 H
b0 `
b0 b
b0 K
b0 V
b0 X
b10000 6
b10000 n
b10000 !"
#179
1/
b0 ;
b0 M
b0 a
b0 p
b0 J
b0 P
b0 Y
#180
1*
#181
b10000 )
b10000 8
b10000 o
b10000 }
#183
b10000 3
b10000 x
b10000 |
b100 :
b100 y
b100 {
b100 ?
b100 z
b101 >
b101 h
b101 B
b101 s
b100 A
b100 r
b100 C
b100 q
b11 @
b11 e
b1000 6
b1000 n
b1000 !"
b11000001000000010000000101 +
b11000001000000010000000101 -
#184
b0 7
b0 g
b0 ~
10
12
0*
#185
b1 4
b1 l
b1 u
b1 ""
b100 5
b100 O
b100 R
b100 U
b100 d
b100 t
b100100 6
b100100 n
b100100 !"
#186
b11111111 =
b11111111 N
b11111111 Q
b11111111 T
b11111111 W
b11111111 c
b11111111 j
b11111111 1
b11111111 i
b11111111 m
b11111111 .
b11111111 k
b11111111 #"
b100 H
b100 `
b100 b
#187
b11111111 H
b11111111 `
b11111111 b
b100 I
b100 S
b100 Z
b11111111 K
b11111111 V
b11111111 X
#188
b10100 6
b10100 n
b10100 !"
0/
b11 ;
b11 M
b11 a
b11 p
b11 J
b11 P
b11 Y
1*
#189
b11 %
b11000 6
b11000 n
b11000 !"
b10100 )
b10100 8
b10100 o
b10100 }
#191
b100 3
b100 x
b100 |
b1 :
b1 y
b1 {
b11 5
b11 O
b11 R
b11 U
b11 d
b11 t
b1 ?
b1 z
b110 >
b110 h
b110 B
b110 s
b1 C
b1 q
b111 @
b111 e
b111000000010000010000000110 +
b111000000010000010000000110 -
#192
b11 I
b11 S
b11 Z
b1 7
b1 g
b1 ~
00
0*
#193
b10 ;
b10 M
b10 a
b10 p
b10 J
b10 P
b10 Y
#196
1*
#197
b11100 6
b11100 n
b11100 !"
b11000 )
b11000 8
b11000 o
b11000 }
#199
b11111111111111111111111111110100 3
b11111111111111111111111111110100 x
b11111111111111111111111111110100 |
b111111111111111111111111111101 :
b111111111111111111111111111101 y
b111111111111111111111111111101 {
b11111101 ?
b11111101 z
b0 >
b0 h
b0 B
b0 s
b0 A
b0 r
b101 C
b101 q
b110 @
b110 e
b110111111010000000000000000 +
b110111111010000000000000000 -
#200
b1 =
b1 N
b1 Q
b1 T
b1 W
b1 c
b1 j
b1 1
b1 i
b1 m
b10 7
b10 g
b10 ~
02
0*
#201
b0 =
b0 N
b0 Q
b0 T
b0 W
b0 c
b0 j
b0 1
b0 i
b0 m
b0 4
b0 l
b0 u
b0 ""
b0 5
b0 O
b0 R
b0 U
b0 d
b0 t
b11 H
b11 `
b11 b
b1 I
b1 S
b1 Z
b1 K
b1 V
b1 X
#202
b0 .
b0 k
b0 #"
b0 H
b0 `
b0 b
b0 I
b0 S
b0 Z
b0 K
b0 V
b0 X
b10000 6
b10000 n
b10000 !"
#203
1/
b0 ;
b0 M
b0 a
b0 p
b0 J
b0 P
b0 Y
#204
1*
#205
b10000 )
b10000 8
b10000 o
b10000 }
#207
b10000 3
b10000 x
b10000 |
b100 :
b100 y
b100 {
b100 ?
b100 z
b101 >
b101 h
b101 B
b101 s
b100 A
b100 r
b100 C
b100 q
b11 @
b11 e
b1000 6
b1000 n
b1000 !"
b11000001000000010000000101 +
b11000001000000010000000101 -
#208
b0 7
b0 g
b0 ~
10
12
0*
#209
b1 4
b1 l
b1 u
b1 ""
b11 5
b11 O
b11 R
b11 U
b11 d
b11 t
b100100 6
b100100 n
b100100 !"
#210
b11111111 =
b11111111 N
b11111111 Q
b11111111 T
b11111111 W
b11111111 c
b11111111 j
b11111111 1
b11111111 i
b11111111 m
b11111111 .
b11111111 k
b11111111 #"
b11 H
b11 `
b11 b
#211
b11111111 H
b11111111 `
b11111111 b
b11 I
b11 S
b11 Z
b11111111 K
b11111111 V
b11111111 X
#212
b10100 6
b10100 n
b10100 !"
0/
b10 ;
b10 M
b10 a
b10 p
b10 J
b10 P
b10 Y
1*
#213
b10 %
b11000 6
b11000 n
b11000 !"
b10100 )
b10100 8
b10100 o
b10100 }
