CPU/Part 5/group07_lab5_part5/cpu_wavedata.vcd
$date
	Sat Feb 19 12:49:07 2022
$end
$version
	Icarus Verilog
$end
$timescale
	1s
$end
$scope module cpu_tb $end
$var wire 32 ! PC [31:0] $end
$var reg 1 " CLK $end
$var reg 32 # INSTRUCTION [31:0] $end
$var reg 1 $ RESET $end
$scope module mycpu $end
$var wire 1 " CLK $end
$var wire 32 % INSTRUCTION [31:0] $end
$var wire 1 $ RESET $end
$var wire 1 & ZERO $end
$var wire 1 ' WRITEENABLE $end
$var wire 32 ( TARGET [31:0] $end
$var wire 1 ) SHIFT_TYPE $end
$var wire 8 * REGOUT2NEGATIVE [7:0] $end
$var wire 8 + REGOUT2 [7:0] $end
$var wire 8 , REGOUT1 [7:0] $end
$var wire 32 - PC_VALUE [31:0] $end
$var wire 2 . PC_SELECT [1:0] $end
$var wire 32 / PC [31:0] $end
$var wire 32 0 NEXT [31:0] $end
$var wire 8 1 MUXOUT2 [7:0] $end
$var wire 8 2 MUXOUT1 [7:0] $end
$var wire 1 3 ImmediateEnable $end
$var wire 1 4 COMPLEMENT $end
$var wire 1 5 BNE $end
$var wire 8 6 ALURESULT [7:0] $end
$var wire 3 7 ALUOP [2:0] $end
$var reg 8 8 IMMEDIATE [7:0] $end
$var reg 8 9 OFFSET [7:0] $end
$var reg 8 : OPCODE [7:0] $end
$var reg 3 ; READREG1 [2:0] $end
$var reg 3 < READREG2 [2:0] $end
$var reg 3 = WRITEREG [2:0] $end
$scope module ALU1 $end
$var wire 8 > TEMP6 [7:0] $end
$var wire 8 ? TEMP7 [7:0] $end
$var wire 8 @ TEMP8 [7:0] $end
$var wire 8 A TEMP5 [7:0] $end
$var wire 8 B TEMP4 [7:0] $end
$var wire 8 C TEMP3 [7:0] $end
$var wire 8 D TEMP2 [7:0] $end
$var wire 8 E TEMP1 [7:0] $end
$var wire 1 ) SHIFT_TYPE $end
$var wire 3 F SELECT [2:0] $end
$var wire 8 G RESULT [7:0] $end
$var wire 8 H DATA2 [7:0] $end
$var wire 8 I DATA1 [7:0] $end
$var reg 1 & ZERO $end
$scope module ADD1 $end
$var wire 8 J RESULT [7:0] $end
$var wire 8 K DATA2 [7:0] $end
$var wire 8 L DATA1 [7:0] $end
$upscope $end
$scope module AND1 $end
$var wire 8 M RESULT [7:0] $end
$var wire 8 N DATA2 [7:0] $end
$var wire 8 O DATA1 [7:0] $end
$upscope $end
$scope module FORWARD1 $end
$var wire 8 P RESULT [7:0] $end
$var wire 8 Q DATA [7:0] $end
$upscope $end
$scope module MUX1 $end
$var wire 8 R DATA1 [7:0] $end
$var wire 8 S DATA2 [7:0] $end
$var wire 8 T DATA3 [7:0] $end
$var wire 8 U DATA6 [7:0] $end
$var wire 8 V DATA7 [7:0] $end
$var wire 8 W DATA8 [7:0] $end
$var wire 3 X SELECT [2:0] $end
$var wire 8 Y DATA5 [7:0] $end
$var wire 8 Z DATA4 [7:0] $end
$var reg 8 [ OUT [7:0] $end
$upscope $end
$scope module OR1 $end
$var wire 8 \ RESULT [7:0] $end
$var wire 8 ] DATA2 [7:0] $end
$var wire 8 ^ DATA1 [7:0] $end
$upscope $end
$scope module SHIFTER1 $end
$var wire 1 ) SHIFT_TYPE $end
$var wire 8 _ SHIFT [7:0] $end
$var wire 8 ` RIGHT [7:0] $end
$var wire 8 a LEFT [7:0] $end
$var wire 8 b IN [7:0] $end
$var reg 8 c OUT [7:0] $end
$scope module LS1 $end
$var wire 4 d SHIFT [3:0] $end
$var wire 1 e Z8 $end
$var wire 1 f Z7 $end
$var wire 1 g Z6 $end
$var wire 1 h Z5 $end
$var wire 1 i Z4 $end
$var wire 1 j Z3 $end
$var wire 1 k Z2 $end
$var wire 1 l Z1 $end
$var wire 1 m Y8 $end
$var wire 1 n Y7 $end
$var wire 1 o Y6 $end
$var wire 1 p Y5 $end
$var wire 1 q Y4 $end
$var wire 1 r Y3 $end
$var wire 1 s Y2 $end
$var wire 1 t Y1 $end
$var wire 1 u X8 $end
$var wire 1 v X7 $end
$var wire 1 w X6 $end
$var wire 1 x X5 $end
$var wire 1 y X4 $end
$var wire 1 z X3 $end
$var wire 1 { X2 $end
$var wire 1 | X1 $end
$var wire 8 } IN [7:0] $end
$var wire 1 ~ F8 $end
$var wire 1 !" F7 $end
$var wire 1 "" F6 $end
$var wire 1 #" F5 $end
$var wire 1 $" F4 $end
$var wire 1 %" F3 $end
$var wire 1 &" F2 $end
$var wire 1 '" F1 $end
$var reg 8 (" OUT [7:0] $end
$var reg 1 )" S1 $end
$var reg 1 *" S2 $end
$var reg 1 +" S3 $end
$var reg 1 ," S4 $end
$scope module L1 $end
$var wire 1 -" IN1 $end
$var wire 1 ." IN2 $end
$var wire 1 /" OR1 $end
$var wire 1 0" OR2 $end
$var wire 1 | OUT $end
$var wire 1 )" S $end
$upscope $end
$scope module L10 $end
$var wire 1 1" IN2 $end
$var wire 1 2" OR1 $end
$var wire 1 3" OR2 $end
$var wire 1 s OUT $end
$var wire 1 *" S $end
$var wire 1 { IN1 $end
$upscope $end
$scope module L11 $end
$var wire 1 | IN2 $end
$var wire 1 4" OR1 $end
$var wire 1 5" OR2 $end
$var wire 1 r OUT $end
$var wire 1 *" S $end
$var wire 1 z IN1 $end
$upscope $end
$scope module L12 $end
$var wire 1 6" OR1 $end
$var wire 1 7" OR2 $end
$var wire 1 q OUT $end
$var wire 1 *" S $end
$var wire 1 { IN2 $end
$var wire 1 y IN1 $end
$upscope $end
$scope module L13 $end
$var wire 1 8" OR1 $end
$var wire 1 9" OR2 $end
$var wire 1 p OUT $end
$var wire 1 *" S $end
$var wire 1 z IN2 $end
$var wire 1 x IN1 $end
$upscope $end
$scope module L14 $end
$var wire 1 :" OR1 $end
$var wire 1 ;" OR2 $end
$var wire 1 o OUT $end
$var wire 1 *" S $end
$var wire 1 y IN2 $end
$var wire 1 w IN1 $end
$upscope $end
$scope module L15 $end
$var wire 1 <" OR1 $end
$var wire 1 =" OR2 $end
$var wire 1 n OUT $end
$var wire 1 *" S $end
$var wire 1 x IN2 $end
$var wire 1 v IN1 $end
$upscope $end
$scope module L16 $end
$var wire 1 >" OR1 $end
$var wire 1 ?" OR2 $end
$var wire 1 m OUT $end
$var wire 1 *" S $end
$var wire 1 w IN2 $end
$var wire 1 u IN1 $end
$upscope $end
$scope module L17 $end
$var wire 1 @" IN2 $end
$var wire 1 A" OR1 $end
$var wire 1 B" OR2 $end
$var wire 1 l OUT $end
$var wire 1 +" S $end
$var wire 1 t IN1 $end
$upscope $end
$scope module L18 $end
$var wire 1 s IN1 $end
$var wire 1 C" IN2 $end
$var wire 1 D" OR1 $end
$var wire 1 E" OR2 $end
$var wire 1 k OUT $end
$var wire 1 +" S $end
$upscope $end
$scope module L19 $end
$var wire 1 r IN1 $end
$var wire 1 F" IN2 $end
$var wire 1 G" OR1 $end
$var wire 1 H" OR2 $end
$var wire 1 j OUT $end
$var wire 1 +" S $end
$upscope $end
$scope module L2 $end
$var wire 1 I" IN1 $end
$var wire 1 J" IN2 $end
$var wire 1 K" OR1 $end
$var wire 1 L" OR2 $end
$var wire 1 { OUT $end
$var wire 1 )" S $end
$upscope $end
$scope module L20 $end
$var wire 1 q IN1 $end
$var wire 1 M" IN2 $end
$var wire 1 N" OR1 $end
$var wire 1 O" OR2 $end
$var wire 1 i OUT $end
$var wire 1 +" S $end
$upscope $end
$scope module L21 $end
$var wire 1 p IN1 $end
$var wire 1 P" OR1 $end
$var wire 1 Q" OR2 $end
$var wire 1 h OUT $end
$var wire 1 +" S $end
$var wire 1 t IN2 $end
$upscope $end
$scope module L22 $end
$var wire 1 o IN1 $end
$var wire 1 s IN2 $end
$var wire 1 R" OR1 $end
$var wire 1 S" OR2 $end
$var wire 1 g OUT $end
$var wire 1 +" S $end
$upscope $end
$scope module L23 $end
$var wire 1 n IN1 $end
$var wire 1 r IN2 $end
$var wire 1 T" OR1 $end
$var wire 1 U" OR2 $end
$var wire 1 f OUT $end
$var wire 1 +" S $end
$upscope $end
$scope module L24 $end
$var wire 1 m IN1 $end
$var wire 1 q IN2 $end
$var wire 1 V" OR1 $end
$var wire 1 W" OR2 $end
$var wire 1 e OUT $end
$var wire 1 +" S $end
$upscope $end
$scope module L25 $end
$var wire 1 l IN1 $end
$var wire 1 X" IN2 $end
$var wire 1 Y" OR1 $end
$var wire 1 Z" OR2 $end
$var wire 1 '" OUT $end
$var wire 1 ," S $end
$upscope $end
$scope module L26 $end
$var wire 1 k IN1 $end
$var wire 1 [" IN2 $end
$var wire 1 \" OR1 $end
$var wire 1 ]" OR2 $end
$var wire 1 &" OUT $end
$var wire 1 ," S $end
$upscope $end
$scope module L27 $end
$var wire 1 j IN1 $end
$var wire 1 ^" IN2 $end
$var wire 1 _" OR1 $end
$var wire 1 `" OR2 $end
$var wire 1 %" OUT $end
$var wire 1 ," S $end
$upscope $end
$scope module L28 $end
$var wire 1 i IN1 $end
$var wire 1 a" IN2 $end
$var wire 1 b" OR1 $end
$var wire 1 c" OR2 $end
$var wire 1 $" OUT $end
$var wire 1 ," S $end
$upscope $end
$scope module L29 $end
$var wire 1 h IN1 $end
$var wire 1 d" IN2 $end
$var wire 1 e" OR1 $end
$var wire 1 f" OR2 $end
$var wire 1 #" OUT $end
$var wire 1 ," S $end
$upscope $end
$scope module L3 $end
$var wire 1 g" IN1 $end
$var wire 1 h" IN2 $end
$var wire 1 i" OR1 $end
$var wire 1 j" OR2 $end
$var wire 1 z OUT $end
$var wire 1 )" S $end
$upscope $end
$scope module L30 $end
$var wire 1 g IN1 $end
$var wire 1 k" IN2 $end
$var wire 1 l" OR1 $end
$var wire 1 m" OR2 $end
$var wire 1 "" OUT $end
$var wire 1 ," S $end
$upscope $end
$scope module L31 $end
$var wire 1 f IN1 $end
$var wire 1 n" IN2 $end
$var wire 1 o" OR1 $end
$var wire 1 p" OR2 $end
$var wire 1 !" OUT $end
$var wire 1 ," S $end
$upscope $end
$scope module L32 $end
$var wire 1 e IN1 $end
$var wire 1 q" IN2 $end
$var wire 1 r" OR1 $end
$var wire 1 s" OR2 $end
$var wire 1 ~ OUT $end
$var wire 1 ," S $end
$upscope $end
$scope module L4 $end
$var wire 1 t" IN1 $end
$var wire 1 u" IN2 $end
$var wire 1 v" OR1 $end
$var wire 1 w" OR2 $end
$var wire 1 y OUT $end
$var wire 1 )" S $end
$upscope $end
$scope module L5 $end
$var wire 1 x" IN1 $end
$var wire 1 y" IN2 $end
$var wire 1 z" OR1 $end
$var wire 1 {" OR2 $end
$var wire 1 x OUT $end
$var wire 1 )" S $end
$upscope $end
$scope module L6 $end
$var wire 1 |" IN1 $end
$var wire 1 }" IN2 $end
$var wire 1 ~" OR1 $end
$var wire 1 !# OR2 $end
$var wire 1 w OUT $end
$var wire 1 )" S $end
$upscope $end
$scope module L7 $end
$var wire 1 "# IN1 $end
$var wire 1 ## IN2 $end
$var wire 1 $# OR1 $end
$var wire 1 %# OR2 $end
$var wire 1 v OUT $end
$var wire 1 )" S $end
$upscope $end
$scope module L8 $end
$var wire 1 &# IN1 $end
$var wire 1 '# IN2 $end
$var wire 1 (# OR1 $end
$var wire 1 )# OR2 $end
$var wire 1 u OUT $end
$var wire 1 )" S $end
$upscope $end
$scope module L9 $end
$var wire 1 | IN1 $end
$var wire 1 *# IN2 $end
$var wire 1 +# OR1 $end
$var wire 1 ,# OR2 $end
$var wire 1 t OUT $end
$var wire 1 *" S $end
$upscope $end
$upscope $end
$scope module RS1 $end
$var wire 4 -# SHIFT [3:0] $end
$var wire 1 .# Z8 $end
$var wire 1 /# Z7 $end
$var wire 1 0# Z6 $end
$var wire 1 1# Z5 $end
$var wire 1 2# Z4 $end
$var wire 1 3# Z3 $end
$var wire 1 4# Z2 $end
$var wire 1 5# Z1 $end
$var wire 1 6# Y8 $end
$var wire 1 7# Y7 $end
$var wire 1 8# Y6 $end
$var wire 1 9# Y5 $end
$var wire 1 :# Y4 $end
$var wire 1 ;# Y3 $end
$var wire 1 <# Y2 $end
$var wire 1 =# Y1 $end
$var wire 1 ># X8 $end
$var wire 1 ?# X7 $end
$var wire 1 @# X6 $end
$var wire 1 A# X5 $end
$var wire 1 B# X4 $end
$var wire 1 C# X3 $end
$var wire 1 D# X2 $end
$var wire 1 E# X1 $end
$var wire 8 F# IN [7:0] $end
$var wire 1 G# F8 $end
$var wire 1 H# F7 $end
$var wire 1 I# F6 $end
$var wire 1 J# F5 $end
$var wire 1 K# F4 $end
$var wire 1 L# F3 $end
$var wire 1 M# F2 $end
$var wire 1 N# F1 $end
$var reg 8 O# OUT [7:0] $end
$var reg 1 P# S1 $end
$var reg 1 Q# S2 $end
$var reg 1 R# S3 $end
$var reg 1 S# S4 $end
$scope module R1 $end
$var wire 1 T# IN1 $end
$var wire 1 U# IN2 $end
$var wire 1 V# OR1 $end
$var wire 1 W# OR2 $end
$var wire 1 ># OUT $end
$var wire 1 P# S $end
$upscope $end
$scope module R10 $end
$var wire 1 X# IN2 $end
$var wire 1 Y# OR1 $end
$var wire 1 Z# OR2 $end
$var wire 1 7# OUT $end
$var wire 1 Q# S $end
$var wire 1 ?# IN1 $end
$upscope $end
$scope module R11 $end
$var wire 1 ># IN2 $end
$var wire 1 [# OR1 $end
$var wire 1 \# OR2 $end
$var wire 1 8# OUT $end
$var wire 1 Q# S $end
$var wire 1 @# IN1 $end
$upscope $end
$scope module R12 $end
$var wire 1 ]# OR1 $end
$var wire 1 ^# OR2 $end
$var wire 1 9# OUT $end
$var wire 1 Q# S $end
$var wire 1 ?# IN2 $end
$var wire 1 A# IN1 $end
$upscope $end
$scope module R13 $end
$var wire 1 _# OR1 $end
$var wire 1 `# OR2 $end
$var wire 1 :# OUT $end
$var wire 1 Q# S $end
$var wire 1 @# IN2 $end
$var wire 1 B# IN1 $end
$upscope $end
$scope module R14 $end
$var wire 1 a# OR1 $end
$var wire 1 b# OR2 $end
$var wire 1 ;# OUT $end
$var wire 1 Q# S $end
$var wire 1 A# IN2 $end
$var wire 1 C# IN1 $end
$upscope $end
$scope module R15 $end
$var wire 1 c# OR1 $end
$var wire 1 d# OR2 $end
$var wire 1 <# OUT $end
$var wire 1 Q# S $end
$var wire 1 B# IN2 $end
$var wire 1 D# IN1 $end
$upscope $end
$scope module R16 $end
$var wire 1 e# OR1 $end
$var wire 1 f# OR2 $end
$var wire 1 =# OUT $end
$var wire 1 Q# S $end
$var wire 1 C# IN2 $end
$var wire 1 E# IN1 $end
$upscope $end
$scope module R17 $end
$var wire 1 g# IN2 $end
$var wire 1 h# OR1 $end
$var wire 1 i# OR2 $end
$var wire 1 .# OUT $end
$var wire 1 R# S $end
$var wire 1 6# IN1 $end
$upscope $end
$scope module R18 $end
$var wire 1 7# IN1 $end
$var wire 1 j# IN2 $end
$var wire 1 k# OR1 $end
$var wire 1 l# OR2 $end
$var wire 1 /# OUT $end
$var wire 1 R# S $end
$upscope $end
$scope module R19 $end
$var wire 1 8# IN1 $end
$var wire 1 m# IN2 $end
$var wire 1 n# OR1 $end
$var wire 1 o# OR2 $end
$var wire 1 0# OUT $end
$var wire 1 R# S $end
$upscope $end
$scope module R2 $end
$var wire 1 p# IN1 $end
$var wire 1 q# IN2 $end
$var wire 1 r# OR1 $end
$var wire 1 s# OR2 $end
$var wire 1 ?# OUT $end
$var wire 1 P# S $end
$upscope $end
$scope module R20 $end
$var wire 1 9# IN1 $end
$var wire 1 t# IN2 $end
$var wire 1 u# OR1 $end
$var wire 1 v# OR2 $end
$var wire 1 1# OUT $end
$var wire 1 R# S $end
$upscope $end
$scope module R21 $end
$var wire 1 :# IN1 $end
$var wire 1 w# OR1 $end
$var wire 1 x# OR2 $end
$var wire 1 2# OUT $end
$var wire 1 R# S $end
$var wire 1 6# IN2 $end
$upscope $end
$scope module R22 $end
$var wire 1 ;# IN1 $end
$var wire 1 7# IN2 $end
$var wire 1 y# OR1 $end
$var wire 1 z# OR2 $end
$var wire 1 3# OUT $end
$var wire 1 R# S $end
$upscope $end
$scope module R23 $end
$var wire 1 <# IN1 $end
$var wire 1 8# IN2 $end
$var wire 1 {# OR1 $end
$var wire 1 |# OR2 $end
$var wire 1 4# OUT $end
$var wire 1 R# S $end
$upscope $end
$scope module R24 $end
$var wire 1 =# IN1 $end
$var wire 1 9# IN2 $end
$var wire 1 }# OR1 $end
$var wire 1 ~# OR2 $end
$var wire 1 5# OUT $end
$var wire 1 R# S $end
$upscope $end
$scope module R25 $end
$var wire 1 .# IN1 $end
$var wire 1 !$ IN2 $end
$var wire 1 "$ OR1 $end
$var wire 1 #$ OR2 $end
$var wire 1 G# OUT $end
$var wire 1 S# S $end
$upscope $end
$scope module R26 $end
$var wire 1 /# IN1 $end
$var wire 1 $$ IN2 $end
$var wire 1 %$ OR1 $end
$var wire 1 &$ OR2 $end
$var wire 1 H# OUT $end
$var wire 1 S# S $end
$upscope $end
$scope module R27 $end
$var wire 1 0# IN1 $end
$var wire 1 '$ IN2 $end
$var wire 1 ($ OR1 $end
$var wire 1 )$ OR2 $end
$var wire 1 I# OUT $end
$var wire 1 S# S $end
$upscope $end
$scope module R28 $end
$var wire 1 1# IN1 $end
$var wire 1 *$ IN2 $end
$var wire 1 +$ OR1 $end
$var wire 1 ,$ OR2 $end
$var wire 1 J# OUT $end
$var wire 1 S# S $end
$upscope $end
$scope module R29 $end
$var wire 1 2# IN1 $end
$var wire 1 -$ IN2 $end
$var wire 1 .$ OR1 $end
$var wire 1 /$ OR2 $end
$var wire 1 K# OUT $end
$var wire 1 S# S $end
$upscope $end
$scope module R3 $end
$var wire 1 0$ IN1 $end
$var wire 1 1$ IN2 $end
$var wire 1 2$ OR1 $end
$var wire 1 3$ OR2 $end
$var wire 1 @# OUT $end
$var wire 1 P# S $end
$upscope $end
$scope module R30 $end
$var wire 1 3# IN1 $end
$var wire 1 4$ IN2 $end
$var wire 1 5$ OR1 $end
$var wire 1 6$ OR2 $end
$var wire 1 L# OUT $end
$var wire 1 S# S $end
$upscope $end
$scope module R31 $end
$var wire 1 4# IN1 $end
$var wire 1 7$ IN2 $end
$var wire 1 8$ OR1 $end
$var wire 1 9$ OR2 $end
$var wire 1 M# OUT $end
$var wire 1 S# S $end
$upscope $end
$scope module R32 $end
$var wire 1 5# IN1 $end
$var wire 1 :$ IN2 $end
$var wire 1 ;$ OR1 $end
$var wire 1 <$ OR2 $end
$var wire 1 N# OUT $end
$var wire 1 S# S $end
$upscope $end
$scope module R4 $end
$var wire 1 =$ IN1 $end
$var wire 1 >$ IN2 $end
$var wire 1 ?$ OR1 $end
$var wire 1 @$ OR2 $end
$var wire 1 A# OUT $end
$var wire 1 P# S $end
$upscope $end
$scope module R5 $end
$var wire 1 A$ IN1 $end
$var wire 1 B$ IN2 $end
$var wire 1 C$ OR1 $end
$var wire 1 D$ OR2 $end
$var wire 1 B# OUT $end
$var wire 1 P# S $end
$upscope $end
$scope module R6 $end
$var wire 1 E$ IN1 $end
$var wire 1 F$ IN2 $end
$var wire 1 G$ OR1 $end
$var wire 1 H$ OR2 $end
$var wire 1 C# OUT $end
$var wire 1 P# S $end
$upscope $end
$scope module R7 $end
$var wire 1 I$ IN1 $end
$var wire 1 J$ IN2 $end
$var wire 1 K$ OR1 $end
$var wire 1 L$ OR2 $end
$var wire 1 D# OUT $end
$var wire 1 P# S $end
$upscope $end
$scope module R8 $end
$var wire 1 M$ IN1 $end
$var wire 1 N$ IN2 $end
$var wire 1 O$ OR1 $end
$var wire 1 P$ OR2 $end
$var wire 1 E# OUT $end
$var wire 1 P# S $end
$upscope $end
$scope module R9 $end
$var wire 1 ># IN1 $end
$var wire 1 Q$ IN2 $end
$var wire 1 R$ OR1 $end
$var wire 1 S$ OR2 $end
$var wire 1 6# OUT $end
$var wire 1 Q# S $end
$upscope $end
$upscope $end
$upscope $end
$upscope $end
$scope module BNE1 $end
$var wire 1 5 OUT $end
$var wire 1 & ZERO $end
$var wire 2 T$ BEQ [1:0] $end
$upscope $end
$scope module CONTROLUNIT $end
$var wire 8 U$ OPCODE [7:0] $end
$var reg 3 V$ ALUOP [2:0] $end
$var reg 1 4 COMPLEMENT $end
$var reg 1 3 IMMEDIATE $end
$var reg 2 W$ PC_SELECTOR [1:0] $end
$var reg 1 ) SHIFT_TYPE $end
$var reg 1 ' WRITEENABLE $end
$upscope $end
$scope module MUX1 $end
$var wire 1 4 SELECT $end
$var wire 8 X$ DATA2 [7:0] $end
$var wire 8 Y$ DATA1 [7:0] $end
$var reg 8 Z$ RESULT [7:0] $end
$upscope $end
$scope module MUX2 $end
$var wire 8 [$ DATA1 [7:0] $end
$var wire 8 \$ DATA2 [7:0] $end
$var wire 1 3 SELECT $end
$var reg 8 ]$ RESULT [7:0] $end
$upscope $end
$scope module NEGATIVE_VAL $end
$var wire 8 ^$ INPUT [7:0] $end
$var reg 8 _$ OUTPUT [7:0] $end
$upscope $end
$scope module PC1 $end
$var wire 1 " CLK $end
$var wire 1 $ RESET $end
$var wire 32 `$ NEXT_PC [31:0] $end
$var reg 32 a$ PC [31:0] $end
$upscope $end
$scope module PC_UPDATE1 $end
$var wire 1 5 BNE $end
$var wire 2 b$ SELECT [1:0] $end
$var wire 1 & ZERO $end
$var wire 32 c$ TARGET [31:0] $end
$var wire 32 d$ PC_VALUE [31:0] $end
$var reg 32 e$ NEXT [31:0] $end
$upscope $end
$scope module REGISTERFILE $end
$var wire 1 " CLOCK $end
$var wire 8 f$ IN [7:0] $end
$var wire 3 g$ INADDRESS [2:0] $end
$var wire 3 h$ OUT1ADDRESS [2:0] $end
$var wire 3 i$ OUT2ADDRESS [2:0] $end
$var wire 1 $ RESET $end
$var wire 1 ' WRITE $end
$var reg 8 j$ OUT1 [7:0] $end
$var reg 8 k$ OUT2 [7:0] $end
$var integer 32 l$ i [31:0] $end
$upscope $end
$scope module TARGET_PC1 $end
$var wire 8 m$ OFFSET [7:0] $end
$var wire 32 n$ PC [31:0] $end
$var wire 32 o$ VAL [31:0] $end
$var wire 32 p$ SE [31:0] $end
$var reg 32 q$ PC_TEMP [31:0] $end
$var reg 32 r$ TARGET [31:0] $end
$var reg 32 s$ temp [31:0] $end
$scope module S1 $end
$var wire 32 t$ OUT [31:0] $end
$var wire 32 u$ IN [31:0] $end
$upscope $end
$scope module SE1 $end
$var wire 8 v$ IN [7:0] $end
$var wire 32 w$ OUT [31:0] $end
$upscope $end
$upscope $end
$upscope $end
$upscope $end
$enddefinitions $end
#0
$dumpvars
bx w$
bx v$
bx u$
bx00 t$
bx00 s$
bx r$
bx q$
bx p$
bx00 o$
bx n$
bx m$
bx l$
bx k$
bx j$
bx i$
bx h$
bx g$
bx f$
bx e$
bx d$
bx c$
bx b$
bx a$
bx `$
bx _$
bx ^$
bx ]$
bx \$
bx [$
bx Z$
bx Y$
bx X$
bx W$
bx V$
bx U$
bx T$
0S$
xR$
0Q$
0P$
xO$
xN$
xM$
0L$
xK$
xJ$
xI$
0H$
xG$
xF$
xE$
0D$
xC$
xB$
xA$
0@$
x?$
x>$
x=$
0<$
x;$
0:$
09$
x8$
07$
06$
x5$
04$
03$
x2$
x1$
x0$
0/$
x.$
0-$
0,$
x+$
0*$
0)$
x($
0'$
0&$
x%$
0$$
0#$
x"$
0!$
0~#
x}#
0|#
x{#
0z#
xy#
0x#
xw#
0v#
xu#
0t#
0s#
xr#
xq#
xp#
0o#
xn#
0m#
0l#
xk#
0j#
0i#
xh#
0g#
0f#
xe#
0d#
xc#
0b#
xa#
0`#
x_#
0^#
x]#
0\#
x[#
0Z#
xY#
0X#
0W#
xV#
0U#
xT#
0S#
0R#
0Q#
0P#
bx O#
xN#
xM#
xL#
xK#
xJ#
xI#
xH#
xG#
bx F#
xE#
xD#
xC#
xB#
xA#
x@#
x?#
x>#
x=#
x<#
x;#
x:#
x9#
x8#
x7#
x6#
x5#
x4#
x3#
x2#
x1#
x0#
x/#
x.#
bx -#
0,#
x+#
0*#
0)#
x(#
x'#
x&#
0%#
x$#
x##
x"#
0!#
x~"
x}"
x|"
0{"
xz"
xy"
xx"
0w"
xv"
xu"
xt"
0s"
xr"
0q"
0p"
xo"
0n"
0m"
xl"
0k"
0j"
xi"
xh"
xg"
0f"
xe"
0d"
0c"
xb"
0a"
0`"
x_"
0^"
0]"
x\"
0["
0Z"
xY"
0X"
0W"
xV"
0U"
xT"
0S"
xR"
0Q"
xP"
0O"
xN"
0M"
0L"
xK"
xJ"
xI"
0H"
xG"
0F"
0E"
xD"
0C"
0B"
xA"
0@"
0?"
x>"
0="
x<"
0;"
x:"
09"
x8"
07"
x6"
05"
x4"
03"
x2"
01"
00"
x/"
0."
x-"
0,"
0+"
0*"
0)"
bx ("
x'"
x&"
x%"
x$"
x#"
x""
x!"
x~
bx }
x|
x{
xz
xy
xx
xw
xv
xu
xt
xs
xr
xq
xp
xo
xn
xm
xl
xk
xj
xi
xh
xg
xf
xe
bx d
bx c
bx b
bx a
bx `
bx _
bx ^
bx ]
bx \
bx [
bx Z
bx Y
bx X
bz W
bz V
bz U
bx T
bx S
bx R
bx Q
bx P
bx O
bx N
bx M
bx L
bx K
bx J
bx I
bx H
bx G
bx F
bx E
bx D
bx C
bx B
bx A
bz @
bz ?
bz >
bx =
bx <
bx ;
bx :
bx 9
bx 8
bx 7
bx 6
x5
x4
x3
bx 2
bx 1
bx 0
bx /
bx .
bx -
bx ,
bx +
bx *
x)
bx (
x'
x&
bx %
1$
bx #
0"
bx !
$end
#4
1"
#5
b0 !
b0 /
b0 a$
b0 n$
b1000 l$
#6
b100 0
b100 `$
b100 e$
b100 -
b100 d$
b100 q$
#7
b10000 s$
b10000 o$
b10000 t$
b101 8
b101 \$
b101 <
b101 i$
b0 ;
b0 h$
b100 =
b100 g$
b100 p$
b100 u$
b100 w$
b100 9
b100 m$
b100 v$
b0 :
b0 U$
b1000000000000000101 #
b1000000000000000101 %
#8
0K#
0#"
0.$
0e"
02#
0h
b0xxx `
b0xxx O#
bx00000 a
bx00000 ("
0G#
0H#
0I#
0J#
06#
0'"
0&"
0%"
0$"
0t
0"$
0%$
0($
0+$
0R$
0Y"
0\"
0_"
0b"
0+#
0.#
0/#
00#
01#
0>#
0l
0k
0j
0i
0|
0h#
0k#
0n#
0u#
0w#
0y#
0{#
0}#
0V#
0r#
02$
0?$
0C$
0G$
0K$
0O$
0A"
0D"
0G"
0N"
0P"
0R"
0T"
0V"
0/"
0K"
0i"
0v"
0z"
0~"
0$#
0(#
0x#
xz#
x|#
x~#
xs#
x3$
x@$
xD$
xH$
xL$
xP$
0Q"
xS"
xU"
xW"
xL"
xj"
xw"
x{"
x!#
x%#
x)#
1R#
1P#
1+"
1)"
05
b101 -#
b101 d
b101 1
b101 H
b101 K
b101 N
b101 Q
b101 ]
b101 _
b101 ]$
0&
0)
b0 .
b0 T$
b0 W$
b0 b$
04
13
1'
b0 7
b0 F
b0 X
b0 V$
0"
#9
b0 `
b0 O#
b0 a
b0 ("
0N#
0M#
0L#
0~
0!"
0""
0;$
08$
05$
0r"
0o"
0l"
05#
04#
03#
0e
0f
0g
0~#
0|#
0z#
0W"
0U"
0S"
0=#
0<#
0;#
0:#
09#
08#
07#
0m
0n
0o
0p
0q
0r
0s
0e#
0c#
0a#
0_#
0]#
0[#
0Y#
0>"
0<"
0:"
08"
06"
04"
02"
0E#
0D#
0C#
0B#
0A#
0@#
0?#
0u
0v
0w
0x
0y
0z
0{
0P$
0L$
0H$
0D$
0@$
03$
0s#
0)#
0%#
0!#
0{"
0w"
0j"
0L"
0N$
0M$
0J$
0I$
0F$
0E$
0B$
0A$
0>$
0=$
01$
00$
0q#
0p#
0T#
0'#
0&#
0##
0"#
0}"
0|"
0y"
0x"
0u"
0t"
0h"
0g"
0J"
0I"
0-"
b0 2
b0 Z$
b0 [$
b0 +
b0 Y$
b0 ^$
b0 k$
b0 ,
b0 I
b0 L
b0 O
b0 ^
b0 b
b0 }
b0 F#
b0 j$
bx1x1 B
bx1x1 Z
bx1x1 \
b0x0x C
b0x0x M
b0x0x T
b0xxx A
b0xxx Y
b0xxx c
b101 6
b101 G
b101 [
b101 f$
b101 E
b101 P
b101 R
b10100 (
b10100 c$
b10100 r$
#10
b0 *
b0 X$
b0 _$
b101 B
b101 Z
b101 \
b0 C
b0 M
b0 T
b0 A
b0 Y
b0 c
0$
#11
b101 D
b101 J
b101 S
#12
1"
#13
b100 !
b100 /
b100 a$
b100 n$
#14
b1000 0
b1000 `$
b1000 e$
b1000 -
b1000 d$
b1000 q$
#15
1S#
0R#
1,"
0+"
b1000 s$
b1001 -#
b1001 d
b1000 o$
b1000 t$
b1001 1
b1001 H
b1001 K
b1001 N
b1001 Q
b1001 ]
b1001 _
b1001 ]$
b1001 8
b1001 \$
b1 <
b1 i$
b10 =
b10 g$
b10 p$
b10 u$
b10 w$
b10 9
b10 m$
b10 v$
b100000000000001001 #
b100000000000001001 %
#16
b1001 B
b1001 Z
b1001 \
b1001 6
b1001 G
b1001 [
b1001 f$
b1001 E
b1001 P
b1001 R
0"
#17
b10000 (
b10000 c$
b10000 r$
b1001 D
b1001 J
b1001 S
#20
1"
#21
b1000 !
b1000 /
b1000 a$
b1000 n$
#22
b1100 0
b1100 `$
b1100 e$
b1100 -
b1100 d$
b1100 q$
#23
0S#
1Q#
0P#
0,"
1*"
0)"
b11000 s$
b10 -#
b10 d
b11000 o$
b11000 t$
b10 1
b10 H
b10 K
b10 N
b10 Q
b10 ]
b10 _
b10 ]$
b10 8
b10 \$
b10 <
b10 i$
b100 ;
b100 h$
b110 =
b110 g$
b110 p$
b110 u$
b110 w$
b110 9
b110 m$
b110 v$
b10 :
b10 U$
b10000001100000010000000010 #
b10000001100000010000000010 %
