CPU/Part 5/cpu_wavedata.vcd
$date
	Sat Feb 19 14:48:39 2022
$end
$version
	Icarus Verilog
$end
$timescale
	1s
$end
$scope module cpu_tb $end
$scope module mycpu $end
$scope module regfile $end
$var reg 8 ! \registers[0] [7:0] $end
$upscope $end
$upscope $end
$upscope $end
$scope module cpu_tb $end
$scope module mycpu $end
$scope module regfile $end
$var reg 8 " \registers[1] [7:0] $end
$upscope $end
$upscope $end
$upscope $end
$scope module cpu_tb $end
$scope module mycpu $end
$scope module regfile $end
$var reg 8 # \registers[2] [7:0] $end
$upscope $end
$upscope $end
$upscope $end
$scope module cpu_tb $end
$scope module mycpu $end
$scope module regfile $end
$var reg 8 $ \registers[3] [7:0] $end
$upscope $end
$upscope $end
$upscope $end
$scope module cpu_tb $end
$scope module mycpu $end
$scope module regfile $end
$var reg 8 % \registers[4] [7:0] $end
$upscope $end
$upscope $end
$upscope $end
$scope module cpu_tb $end
$scope module mycpu $end
$scope module regfile $end
$var reg 8 & \registers[5] [7:0] $end
$upscope $end
$upscope $end
$upscope $end
$scope module cpu_tb $end
$scope module mycpu $end
$scope module regfile $end
$var reg 8 ' \registers[6] [7:0] $end
$upscope $end
$upscope $end
$upscope $end
$scope module cpu_tb $end
$scope module mycpu $end
$scope module regfile $end
$var reg 8 ( \registers[7] [7:0] $end
$upscope $end
$upscope $end
$upscope $end
$scope module cpu_tb $end
$var wire 32 ) PC [31:0] $end
$var reg 1 * CLK $end
$var reg 32 + INSTRUCTION [31:0] $end
$var reg 1 , RESET $end
$scope module mycpu $end
$var wire 1 * CLK $end
$var wire 32 - INSTRUCTION [31:0] $end
$var wire 1 , RESET $end
$var wire 8 . negative [7:0] $end
$var wire 1 / ZERO $end
$var wire 1 0 WRITEENABLE $end
$var wire 8 1 ToMUX2 [7:0] $end
$var wire 1 2 ShiftSignal $end
$var wire 1 3 SIGN $end
$var wire 32 4 SHIFTED [31:0] $end
$var wire 8 5 REGOUT2 [7:0] $end
$var wire 8 6 REGOUT1 [7:0] $end
$var wire 2 7 PC_SELECTOR [1:0] $end
$var wire 32 8 PC [31:0] $end
$var wire 1 9 IMMEDIATE $end
$var wire 32 : EXTENDED [31:0] $end
$var wire 1 ; BNE $end
$var wire 8 < ALUOUT [7:0] $end
$var wire 3 = ALUOP [2:0] $end
$var wire 8 > ALUIN1 [7:0] $end
$var reg 8 ? IMMEDIATEVal [7:0] $end
$var reg 8 @ OFFSET [7:0] $end
$var reg 8 A OPCODE [7:0] $end
$var reg 3 B READREG1 [2:0] $end
$var reg 3 C READREG2 [2:0] $end
$var reg 3 D WRITEREG [2:0] $end
$scope module ALU1 $end
$var wire 8 E temp5 [7:0] $end
$var wire 8 F temp6 [7:0] $end
$var wire 8 G temp7 [7:0] $end
$var wire 8 H temp4 [7:0] $end
$var wire 8 I temp3 [7:0] $end
$var wire 8 J temp2 [7:0] $end
$var wire 8 K temp1 [7:0] $end
$var wire 8 L temp0 [7:0] $end
$var wire 1 2 SHIFTsignal $end
$var wire 3 M SELECT [2:0] $end
$var wire 8 N RESULT [7:0] $end
$var wire 8 O DATA2 [7:0] $end
$var wire 8 P DATA1 [7:0] $end
$var reg 1 / ZERO $end
$scope module ADD1 $end
$var wire 8 Q result [7:0] $end
$var wire 8 R data2 [7:0] $end
$var wire 8 S data1 [7:0] $end
$upscope $end
$scope module AND1 $end
$var wire 8 T result [7:0] $end
$var wire 8 U data2 [7:0] $end
$var wire 8 V data1 [7:0] $end
$upscope $end
$scope module FORWARD1 $end
$var wire 8 W result [7:0] $end
$var wire 8 X data [7:0] $end
$upscope $end
$scope module Mux $end
$var wire 8 Y D0 [7:0] $end
$var wire 8 Z D1 [7:0] $end
$var wire 8 [ D2 [7:0] $end
$var wire 8 \ D5 [7:0] $end
$var wire 8 ] D6 [7:0] $end
$var wire 8 ^ D7 [7:0] $end
$var wire 3 _ Select [2:0] $end
$var wire 8 ` D4 [7:0] $end
$var wire 8 a D3 [7:0] $end
$var reg 8 b out [7:0] $end
$upscope $end
$scope module OR1 $end
$var wire 8 c result [7:0] $end
$var wire 8 d data2 [7:0] $end
$var wire 8 e data1 [7:0] $end
$upscope $end
$scope module logicalShifter $end
$var wire 8 f temp2 [7:0] $end
$var wire 8 g temp1 [7:0] $end
$var wire 8 h shiftVal [7:0] $end
$var wire 1 2 shiftSignal $end
$var wire 8 i IN [7:0] $end
$var reg 8 j OUT [7:0] $end
$scope module LS1 $end
$var wire 4 k SHIFT [3:0] $end
$var wire 1 l c7 $end
$var wire 1 m c6 $end
$var wire 1 n c5 $end
$var wire 1 o c4 $end
$var wire 1 p c3 $end
$var wire 1 q c2 $end
$var wire 1 r c1 $end
$var wire 1 s c0 $end
$var wire 1 t b7 $end
$var wire 1 u b6 $end
$var wire 1 v b5 $end
$var wire 1 w b4 $end
$var wire 1 x b3 $end
$var wire 1 y b2 $end
$var wire 1 z b1 $end
$var wire 1 { b0 $end
$var wire 1 | a7 $end
$var wire 1 } a6 $end
$var wire 1 ~ a5 $end
$var wire 1 !" a4 $end
$var wire 1 "" a3 $end
$var wire 1 #" a2 $end
$var wire 1 $" a1 $end
$var wire 1 %" a0 $end
$var wire 8 &" OUT [7:0] $end
$var wire 8 '" IN [7:0] $end
$scope module A0 $end
$var wire 1 (" IN0 $end
$var wire 1 )" IN1 $end
$var wire 1 %" OUT $end
$var wire 1 *" S $end
$var wire 1 +" and1 $end
$var wire 1 ," and2 $end
$upscope $end
$scope module A1 $end
$var wire 1 -" IN0 $end
$var wire 1 ." IN1 $end
$var wire 1 $" OUT $end
$var wire 1 /" S $end
$var wire 1 0" and1 $end
$var wire 1 1" and2 $end
$upscope $end
$scope module A2 $end
$var wire 1 2" IN0 $end
$var wire 1 3" IN1 $end
$var wire 1 #" OUT $end
$var wire 1 4" S $end
$var wire 1 5" and1 $end
$var wire 1 6" and2 $end
$upscope $end
$scope module A3 $end
$var wire 1 7" IN0 $end
$var wire 1 8" IN1 $end
$var wire 1 "" OUT $end
$var wire 1 9" S $end
$var wire 1 :" and1 $end
$var wire 1 ;" and2 $end
$upscope $end
$scope module A4 $end
$var wire 1 <" IN0 $end
$var wire 1 =" IN1 $end
$var wire 1 !" OUT $end
$var wire 1 >" S $end
$var wire 1 ?" and1 $end
$var wire 1 @" and2 $end
$upscope $end
$scope module A5 $end
$var wire 1 A" IN0 $end
$var wire 1 B" IN1 $end
$var wire 1 ~ OUT $end
$var wire 1 C" S $end
$var wire 1 D" and1 $end
$var wire 1 E" and2 $end
$upscope $end
$scope module A6 $end
$var wire 1 F" IN0 $end
$var wire 1 G" IN1 $end
$var wire 1 } OUT $end
$var wire 1 H" S $end
$var wire 1 I" and1 $end
$var wire 1 J" and2 $end
$upscope $end
$scope module A7 $end
$var wire 1 K" IN0 $end
$var wire 1 L" IN1 $end
$var wire 1 | OUT $end
$var wire 1 M" S $end
$var wire 1 N" and1 $end
$var wire 1 O" and2 $end
$upscope $end
$scope module B0 $end
$var wire 1 %" IN0 $end
$var wire 1 P" IN1 $end
$var wire 1 { OUT $end
$var wire 1 Q" S $end
$var wire 1 R" and1 $end
$var wire 1 S" and2 $end
$upscope $end
$scope module B1 $end
$var wire 1 $" IN0 $end
$var wire 1 T" IN1 $end
$var wire 1 z OUT $end
$var wire 1 U" S $end
$var wire 1 V" and1 $end
$var wire 1 W" and2 $end
$upscope $end
$scope module B2 $end
$var wire 1 #" IN0 $end
$var wire 1 %" IN1 $end
$var wire 1 y OUT $end
$var wire 1 X" S $end
$var wire 1 Y" and1 $end
$var wire 1 Z" and2 $end
$upscope $end
$scope module B3 $end
$var wire 1 "" IN0 $end
$var wire 1 $" IN1 $end
$var wire 1 x OUT $end
$var wire 1 [" S $end
$var wire 1 \" and1 $end
$var wire 1 ]" and2 $end
$upscope $end
$scope module B4 $end
$var wire 1 !" IN0 $end
$var wire 1 #" IN1 $end
$var wire 1 w OUT $end
$var wire 1 ^" S $end
$var wire 1 _" and1 $end
$var wire 1 `" and2 $end
$upscope $end
$scope module B5 $end
$var wire 1 ~ IN0 $end
$var wire 1 "" IN1 $end
$var wire 1 v OUT $end
$var wire 1 a" S $end
$var wire 1 b" and1 $end
$var wire 1 c" and2 $end
$upscope $end
$scope module B6 $end
$var wire 1 } IN0 $end
$var wire 1 !" IN1 $end
$var wire 1 u OUT $end
$var wire 1 d" S $end
$var wire 1 e" and1 $end
$var wire 1 f" and2 $end
$upscope $end
$scope module B7 $end
$var wire 1 | IN0 $end
$var wire 1 ~ IN1 $end
$var wire 1 t OUT $end
$var wire 1 g" S $end
$var wire 1 h" and1 $end
$var wire 1 i" and2 $end
$upscope $end
$scope module C0 $end
$var wire 1 { IN0 $end
$var wire 1 j" IN1 $end
$var wire 1 s OUT $end
$var wire 1 k" S $end
$var wire 1 l" and1 $end
$var wire 1 m" and2 $end
$upscope $end
$scope module C1 $end
$var wire 1 z IN0 $end
$var wire 1 n" IN1 $end
$var wire 1 r OUT $end
$var wire 1 o" S $end
$var wire 1 p" and1 $end
$var wire 1 q" and2 $end
$upscope $end
$scope module C2 $end
$var wire 1 y IN0 $end
$var wire 1 r" IN1 $end
$var wire 1 q OUT $end
$var wire 1 s" S $end
$var wire 1 t" and1 $end
$var wire 1 u" and2 $end
$upscope $end
$scope module C3 $end
$var wire 1 x IN0 $end
$var wire 1 v" IN1 $end
$var wire 1 p OUT $end
$var wire 1 w" S $end
$var wire 1 x" and1 $end
$var wire 1 y" and2 $end
$upscope $end
$scope module C4 $end
$var wire 1 w IN0 $end
$var wire 1 { IN1 $end
$var wire 1 o OUT $end
$var wire 1 z" S $end
$var wire 1 {" and1 $end
$var wire 1 |" and2 $end
$upscope $end
$scope module C5 $end
$var wire 1 v IN0 $end
$var wire 1 z IN1 $end
$var wire 1 n OUT $end
$var wire 1 }" S $end
$var wire 1 ~" and1 $end
$var wire 1 !# and2 $end
$upscope $end
$scope module C6 $end
$var wire 1 u IN0 $end
$var wire 1 y IN1 $end
$var wire 1 m OUT $end
$var wire 1 "# S $end
$var wire 1 ## and1 $end
$var wire 1 $# and2 $end
$upscope $end
$scope module C7 $end
$var wire 1 t IN0 $end
$var wire 1 x IN1 $end
$var wire 1 l OUT $end
$var wire 1 %# S $end
$var wire 1 &# and1 $end
$var wire 1 '# and2 $end
$upscope $end
$scope module D0 $end
$var wire 1 s IN0 $end
$var wire 1 (# IN1 $end
$var wire 1 )# OUT $end
$var wire 1 *# S $end
$var wire 1 +# and1 $end
$var wire 1 ,# and2 $end
$upscope $end
$scope module D1 $end
$var wire 1 r IN0 $end
$var wire 1 -# IN1 $end
$var wire 1 .# OUT $end
$var wire 1 /# S $end
$var wire 1 0# and1 $end
$var wire 1 1# and2 $end
$upscope $end
$scope module D2 $end
$var wire 1 q IN0 $end
$var wire 1 2# IN1 $end
$var wire 1 3# OUT $end
$var wire 1 4# S $end
$var wire 1 5# and1 $end
$var wire 1 6# and2 $end
$upscope $end
$scope module D3 $end
$var wire 1 p IN0 $end
$var wire 1 7# IN1 $end
$var wire 1 8# OUT $end
$var wire 1 9# S $end
$var wire 1 :# and1 $end
$var wire 1 ;# and2 $end
$upscope $end
$scope module D4 $end
$var wire 1 o IN0 $end
$var wire 1 <# IN1 $end
$var wire 1 =# OUT $end
$var wire 1 ># S $end
$var wire 1 ?# and1 $end
$var wire 1 @# and2 $end
$upscope $end
$scope module D5 $end
$var wire 1 n IN0 $end
$var wire 1 A# IN1 $end
$var wire 1 B# OUT $end
$var wire 1 C# S $end
$var wire 1 D# and1 $end
$var wire 1 E# and2 $end
$upscope $end
$scope module D6 $end
$var wire 1 m IN0 $end
$var wire 1 F# IN1 $end
$var wire 1 G# OUT $end
$var wire 1 H# S $end
$var wire 1 I# and1 $end
$var wire 1 J# and2 $end
$upscope $end
$scope module D7 $end
$var wire 1 l IN0 $end
$var wire 1 K# IN1 $end
$var wire 1 L# OUT $end
$var wire 1 M# S $end
$var wire 1 N# and1 $end
$var wire 1 O# and2 $end
$upscope $end
$upscope $end
$scope module RS2 $end
$var wire 4 P# SHIFT [3:0] $end
$var wire 1 Q# c7 $end
$var wire 1 R# c6 $end
$var wire 1 S# c5 $end
$var wire 1 T# c4 $end
$var wire 1 U# c3 $end
$var wire 1 V# c2 $end
$var wire 1 W# c1 $end
$var wire 1 X# c0 $end
$var wire 1 Y# b7 $end
$var wire 1 Z# b6 $end
$var wire 1 [# b5 $end
$var wire 1 \# b4 $end
$var wire 1 ]# b3 $end
$var wire 1 ^# b2 $end
$var wire 1 _# b1 $end
$var wire 1 `# b0 $end
$var wire 1 a# a7 $end
$var wire 1 b# a6 $end
$var wire 1 c# a5 $end
$var wire 1 d# a4 $end
$var wire 1 e# a3 $end
$var wire 1 f# a2 $end
$var wire 1 g# a1 $end
$var wire 1 h# a0 $end
$var wire 8 i# OUT [7:0] $end
$var wire 8 j# IN [7:0] $end
$scope module A0 $end
$var wire 1 k# IN0 $end
$var wire 1 l# IN1 $end
$var wire 1 a# OUT $end
$var wire 1 m# S $end
$var wire 1 n# and1 $end
$var wire 1 o# and2 $end
$upscope $end
$scope module A1 $end
$var wire 1 p# IN0 $end
$var wire 1 q# IN1 $end
$var wire 1 b# OUT $end
$var wire 1 r# S $end
$var wire 1 s# and1 $end
$var wire 1 t# and2 $end
$upscope $end
$scope module A2 $end
$var wire 1 u# IN0 $end
$var wire 1 v# IN1 $end
$var wire 1 c# OUT $end
$var wire 1 w# S $end
$var wire 1 x# and1 $end
$var wire 1 y# and2 $end
$upscope $end
$scope module A3 $end
$var wire 1 z# IN0 $end
$var wire 1 {# IN1 $end
$var wire 1 d# OUT $end
$var wire 1 |# S $end
$var wire 1 }# and1 $end
$var wire 1 ~# and2 $end
$upscope $end
$scope module A4 $end
$var wire 1 !$ IN0 $end
$var wire 1 "$ IN1 $end
$var wire 1 e# OUT $end
$var wire 1 #$ S $end
$var wire 1 $$ and1 $end
$var wire 1 %$ and2 $end
$upscope $end
$scope module A5 $end
$var wire 1 &$ IN0 $end
$var wire 1 '$ IN1 $end
$var wire 1 f# OUT $end
$var wire 1 ($ S $end
$var wire 1 )$ and1 $end
$var wire 1 *$ and2 $end
$upscope $end
$scope module A6 $end
$var wire 1 +$ IN0 $end
$var wire 1 ,$ IN1 $end
$var wire 1 g# OUT $end
$var wire 1 -$ S $end
$var wire 1 .$ and1 $end
$var wire 1 /$ and2 $end
$upscope $end
$scope module A7 $end
$var wire 1 0$ IN0 $end
$var wire 1 1$ IN1 $end
$var wire 1 h# OUT $end
$var wire 1 2$ S $end
$var wire 1 3$ and1 $end
$var wire 1 4$ and2 $end
$upscope $end
$scope module B0 $end
$var wire 1 a# IN0 $end
$var wire 1 c# IN1 $end
$var wire 1 Y# OUT $end
$var wire 1 5$ S $end
$var wire 1 6$ and1 $end
$var wire 1 7$ and2 $end
$upscope $end
$scope module B1 $end
$var wire 1 b# IN0 $end
$var wire 1 d# IN1 $end
$var wire 1 Z# OUT $end
$var wire 1 8$ S $end
$var wire 1 9$ and1 $end
$var wire 1 :$ and2 $end
$upscope $end
$scope module B2 $end
$var wire 1 c# IN0 $end
$var wire 1 e# IN1 $end
$var wire 1 [# OUT $end
$var wire 1 ;$ S $end
$var wire 1 <$ and1 $end
$var wire 1 =$ and2 $end
$upscope $end
$scope module B3 $end
$var wire 1 d# IN0 $end
$var wire 1 f# IN1 $end
$var wire 1 \# OUT $end
$var wire 1 >$ S $end
$var wire 1 ?$ and1 $end
$var wire 1 @$ and2 $end
$upscope $end
$scope module B4 $end
$var wire 1 e# IN0 $end
$var wire 1 g# IN1 $end
$var wire 1 ]# OUT $end
$var wire 1 A$ S $end
$var wire 1 B$ and1 $end
$var wire 1 C$ and2 $end
$upscope $end
$scope module B5 $end
$var wire 1 f# IN0 $end
$var wire 1 h# IN1 $end
$var wire 1 ^# OUT $end
$var wire 1 D$ S $end
$var wire 1 E$ and1 $end
$var wire 1 F$ and2 $end
$upscope $end
$scope module B6 $end
$var wire 1 g# IN0 $end
$var wire 1 G$ IN1 $end
$var wire 1 _# OUT $end
$var wire 1 H$ S $end
$var wire 1 I$ and1 $end
$var wire 1 J$ and2 $end
$upscope $end
$scope module B7 $end
$var wire 1 h# IN0 $end
$var wire 1 K$ IN1 $end
$var wire 1 `# OUT $end
$var wire 1 L$ S $end
$var wire 1 M$ and1 $end
$var wire 1 N$ and2 $end
$upscope $end
$scope module C0 $end
$var wire 1 Y# IN0 $end
$var wire 1 ]# IN1 $end
$var wire 1 Q# OUT $end
$var wire 1 O$ S $end
$var wire 1 P$ and1 $end
$var wire 1 Q$ and2 $end
$upscope $end
$scope module C1 $end
$var wire 1 Z# IN0 $end
$var wire 1 ^# IN1 $end
$var wire 1 R# OUT $end
$var wire 1 R$ S $end
$var wire 1 S$ and1 $end
$var wire 1 T$ and2 $end
$upscope $end
$scope module C2 $end
$var wire 1 [# IN0 $end
$var wire 1 _# IN1 $end
$var wire 1 S# OUT $end
$var wire 1 U$ S $end
$var wire 1 V$ and1 $end
$var wire 1 W$ and2 $end
$upscope $end
$scope module C3 $end
$var wire 1 \# IN0 $end
$var wire 1 `# IN1 $end
$var wire 1 T# OUT $end
$var wire 1 X$ S $end
$var wire 1 Y$ and1 $end
$var wire 1 Z$ and2 $end
$upscope $end
$scope module C4 $end
$var wire 1 ]# IN0 $end
$var wire 1 [$ IN1 $end
$var wire 1 U# OUT $end
$var wire 1 \$ S $end
$var wire 1 ]$ and1 $end
$var wire 1 ^$ and2 $end
$upscope $end
$scope module C5 $end
$var wire 1 ^# IN0 $end
$var wire 1 _$ IN1 $end
$var wire 1 V# OUT $end
$var wire 1 `$ S $end
$var wire 1 a$ and1 $end
$var wire 1 b$ and2 $end
$upscope $end
$scope module C6 $end
$var wire 1 _# IN0 $end
$var wire 1 c$ IN1 $end
$var wire 1 W# OUT $end
$var wire 1 d$ S $end
$var wire 1 e$ and1 $end
$var wire 1 f$ and2 $end
$upscope $end
$scope module C7 $end
$var wire 1 `# IN0 $end
$var wire 1 g$ IN1 $end
$var wire 1 X# OUT $end
$var wire 1 h$ S $end
$var wire 1 i$ and1 $end
$var wire 1 j$ and2 $end
$upscope $end
$scope module D0 $end
$var wire 1 Q# IN0 $end
$var wire 1 k$ IN1 $end
$var wire 1 l$ OUT $end
$var wire 1 m$ S $end
$var wire 1 n$ and1 $end
$var wire 1 o$ and2 $end
$upscope $end
$scope module D1 $end
$var wire 1 R# IN0 $end
$var wire 1 p$ IN1 $end
$var wire 1 q$ OUT $end
$var wire 1 r$ S $end
$var wire 1 s$ and1 $end
$var wire 1 t$ and2 $end
$upscope $end
$scope module D2 $end
$var wire 1 S# IN0 $end
$var wire 1 u$ IN1 $end
$var wire 1 v$ OUT $end
$var wire 1 w$ S $end
$var wire 1 x$ and1 $end
$var wire 1 y$ and2 $end
$upscope $end
$scope module D3 $end
$var wire 1 T# IN0 $end
$var wire 1 z$ IN1 $end
$var wire 1 {$ OUT $end
$var wire 1 |$ S $end
$var wire 1 }$ and1 $end
$var wire 1 ~$ and2 $end
$upscope $end
$scope module D4 $end
$var wire 1 U# IN0 $end
$var wire 1 !% IN1 $end
$var wire 1 "% OUT $end
$var wire 1 #% S $end
$var wire 1 $% and1 $end
$var wire 1 %% and2 $end
$upscope $end
$scope module D5 $end
$var wire 1 V# IN0 $end
$var wire 1 &% IN1 $end
$var wire 1 '% OUT $end
$var wire 1 (% S $end
$var wire 1 )% and1 $end
$var wire 1 *% and2 $end
$upscope $end
$scope module D6 $end
$var wire 1 W# IN0 $end
$var wire 1 +% IN1 $end
$var wire 1 ,% OUT $end
$var wire 1 -% S $end
$var wire 1 .% and1 $end
$var wire 1 /% and2 $end
$upscope $end
$scope module D7 $end
$var wire 1 X# IN0 $end
$var wire 1 0% IN1 $end
$var wire 1 1% OUT $end
$var wire 1 2% S $end
$var wire 1 3% and1 $end
$var wire 1 4% and2 $end
$upscope $end
$upscope $end
$upscope $end
$upscope $end
$scope module bne1 $end
$var wire 1 ; OUT $end
$var wire 1 / ZERO $end
$var wire 2 5% PC_Selector [1:0] $end
$upscope $end
$scope module control $end
$var wire 8 6% OPCODE [7:0] $end
$var reg 3 7% ALUOP [2:0] $end
$var reg 1 9 IMMEDIATE $end
$var reg 2 8% PC_SELECTOR [1:0] $end
$var reg 1 3 SIGN $end
$var reg 1 2 ShiftSignal $end
$var reg 1 0 WRITEENABLE $end
$upscope $end
$scope module mux4Ime $end
$var wire 8 9% data2 [7:0] $end
$var wire 1 9 select $end
$var wire 8 :% data1 [7:0] $end
$var reg 8 ;% result [7:0] $end
$upscope $end
$scope module mux4sign $end
$var wire 1 3 select $end
$var wire 8 <% data2 [7:0] $end
$var wire 8 =% data1 [7:0] $end
$var reg 8 >% result [7:0] $end
$upscope $end
$scope module pc1 $end
$var wire 1 ; BNE $end
$var wire 1 * CLK $end
$var wire 2 ?% PC_SELECTOR [1:0] $end
$var wire 1 , RESET $end
$var wire 1 / ZERO $end
$var wire 32 @% EXTENDED_OFFSET [31:0] $end
$var reg 32 A% PC [31:0] $end
$var reg 32 B% PC_Next [31:0] $end
$var reg 32 C% PC_Temp [31:0] $end
$var reg 32 D% target [31:0] $end
$var reg 32 E% temp [31:0] $end
$upscope $end
$scope module regfile $end
$var wire 1 * CLK $end
$var wire 8 F% IN [7:0] $end
$var wire 3 G% INADDRESS [2:0] $end
$var wire 3 H% OUT1ADDRESS [2:0] $end
$var wire 3 I% OUT2ADDRESS [2:0] $end
$var wire 1 , RESET $end
$var wire 1 0 WRITE $end
$var reg 8 J% OUT1 [7:0] $end
$var reg 8 K% OUT2 [7:0] $end
$var integer 32 L% i [31:0] $end
$var integer 32 M% j [31:0] $end
$upscope $end
$scope module shiftLeft1 $end
$var wire 32 N% shifted [31:0] $end
$var wire 32 O% shift [31:0] $end
$upscope $end
$scope module signEx1 $end
$var wire 8 P% toExtend [7:0] $end
$var reg 32 Q% extended [31:0] $end
$upscope $end
$scope module twos_comp1 $end
$var wire 8 R% unsign [7:0] $end
$var reg 8 S% sign [7:0] $end
$upscope $end
$upscope $end
$upscope $end
$enddefinitions $end
#0
$dumpvars
bx S%
bx R%
bx Q%
bx P%
bx O%
bx00 N%
b1000 M%
bx L%
bx K%
bx J%
bx I%
bx H%
bx G%
bx F%
bx00 E%
bx D%
bx C%
bx B%
bx A%
bx00 @%
bx ?%
bx >%
bx =%
bx <%
bx ;%
bx :%
bx 9%
bx 8%
bx 7%
bx 6%
bx 5%
04%
x3%
x2%
x1%
00%
0/%
x.%
x-%
x,%
0+%
0*%
x)%
x(%
x'%
0&%
0%%
x$%
x#%
x"%
0!%
0~$
x}$
x|$
x{$
0z$
0y$
xx$
xw$
xv$
0u$
0t$
xs$
xr$
xq$
0p$
0o$
xn$
xm$
xl$
0k$
0j$
xi$
xh$
0g$
0f$
xe$
xd$
0c$
0b$
xa$
x`$
0_$
0^$
x]$
x\$
0[$
xZ$
xY$
xX$
xW$
xV$
xU$
xT$
xS$
xR$
xQ$
xP$
xO$
0N$
xM$
xL$
0K$
0J$
xI$
xH$
0G$
xF$
xE$
xD$
xC$
xB$
xA$
x@$
x?$
x>$
x=$
x<$
x;$
x:$
x9$
x8$
x7$
x6$
x5$
04$
x3$
x2$
01$
x0$
x/$
x.$
x-$
x,$
x+$
x*$
x)$
x($
x'$
x&$
x%$
x$$
x#$
x"$
x!$
x~#
x}#
x|#
x{#
xz#
xy#
xx#
xw#
xv#
xu#
xt#
xs#
xr#
xq#
xp#
xo#
xn#
xm#
xl#
xk#
bx j#
bx i#
xh#
xg#
xf#
xe#
xd#
xc#
xb#
xa#
x`#
x_#
x^#
x]#
x\#
x[#
xZ#
xY#
xX#
xW#
xV#
xU#
xT#
xS#
xR#
xQ#
bx P#
0O#
xN#
xM#
xL#
0K#
0J#
xI#
xH#
xG#
0F#
0E#
xD#
xC#
xB#
0A#
0@#
x?#
x>#
x=#
0<#
0;#
x:#
x9#
x8#
07#
06#
x5#
x4#
x3#
02#
01#
x0#
x/#
x.#
0-#
0,#
x+#
x*#
x)#
0(#
x'#
x&#
x%#
x$#
x##
x"#
x!#
x~"
x}"
x|"
x{"
xz"
0y"
xx"
xw"
0v"
0u"
xt"
xs"
0r"
0q"
xp"
xo"
0n"
0m"
xl"
xk"
0j"
xi"
xh"
xg"
xf"
xe"
xd"
xc"
xb"
xa"
x`"
x_"
x^"
x]"
x\"
x["
xZ"
xY"
xX"
0W"
xV"
xU"
0T"
0S"
xR"
xQ"
0P"
xO"
xN"
xM"
xL"
xK"
xJ"
xI"
xH"
xG"
xF"
xE"
xD"
xC"
xB"
xA"
x@"
x?"
x>"
x="
x<"
x;"
x:"
x9"
x8"
x7"
x6"
x5"
x4"
x3"
x2"
x1"
x0"
x/"
x."
x-"
0,"
x+"
x*"
0)"
x("
bx '"
bx &"
x%"
x$"
x#"
x""
x!"
x~
x}
x|
x{
xz
xy
xx
xw
xv
xu
xt
xs
xr
xq
xp
xo
xn
xm
xl
bx k
bx j
bx i
bx h
bx g
bx f
bx e
bx d
bx c
bx b
bx a
bx `
bx _
bz ^
bz ]
bz \
bx [
bx Z
bx Y
bx X
bx W
bx V
bx U
bx T
bx S
bx R
bx Q
bx P
bx O
bx N
bx M
bx L
bx K
bx J
bx I
bx H
bz G
bz F
bz E
bx D
bx C
bx B
bx A
bx @
bx ?
bx >
bx =
bx <
x;
bx :
x9
bx 8
bx 7
bx 6
bx 5
bx00 4
x3
x2
bx 1
x0
x/
bx .
bx -
1,
bx +
0*
bx )
bx (
bx '
bx &
bx %
bx $
bx #
bx "
bx !
$end
#4
1*
#5
b0 (
b0 '
b0 &
b0 %
b0 $
b0 #
b0 "
b0 !
b0 )
b0 8
b0 A%
b1000 L%
#6
b100 B%
b100 C%
#7
b10000 E%
b10000 4
b10000 @%
b10000 N%
b100 :
b100 O%
b100 Q%
b100 @
b100 P%
b1010 ?
b1010 9%
b10 C
b10 I%
b0 B
b0 H%
b100 D
b100 G%
b0 A
b0 6%
b1000000000000001010 +
b1000000000000001010 -
#8
0X#
0W#
0r
0s
0i$
0e$
0p"
0l"
0`#
0_#
01%
0,%
0'%
0"%
0{$
0v$
0q$
b0 f
b0 i#
0l$
0z
0{
0L#
0G#
0B#
0=#
08#
03#
0.#
b0 g
b0 &"
0)#
0M$
0I$
0E$
0B$
0?$
0<$
09$
06$
03%
0.%
0)%
0$%
0}$
0x$
0s$
0n$
0h"
0e"
0b"
0_"
0\"
0Y"
0V"
0R"
0N#
0I#
0D#
0?#
0:#
05#
00#
0+#
0/$
0*$
0%$
0~#
0y#
0t#
0o#
0Z$
0W$
0T$
0Q$
0O"
0J"
0E"
0@"
0;"
06"
01"
0'#
0$#
0!#
0|"
02$
0-$
0($
0#$
0|#
0w#
0r#
0m#
1L$
1H$
1D$
1A$
1>$
1;$
18$
15$
0h$
0d$
0`$
0\$
0X$
0U$
0R$
0O$
12%
1-%
1(%
1#%
1|$
1w$
1r$
1m$
0M"
0H"
0C"
0>"
09"
04"
0/"
0*"
1g"
1d"
1a"
1^"
1["
1X"
1U"
1Q"
0%#
0"#
0}"
0z"
0w"
0s"
0o"
0k"
1M#
1H#
1C#
1>#
19#
14#
1/#
1*#
0;
b1010 P#
b1010 k
b1010 >
b1010 O
b1010 R
b1010 U
b1010 X
b1010 d
b1010 h
b1010 ;%
0/
02
b0 7
b0 5%
b0 8%
b0 ?%
19
10
03
b0 =
b0 M
b0 _
b0 7%
0*
#9
0Q#
0R#
0S#
0T#
0U#
0V#
0q
0p
0o
0n
0m
0l
0P$
0S$
0V$
0Y$
0]$
0a$
0t"
0x"
0{"
0~"
0##
0&#
0Y#
0Z#
0[#
0\#
0]#
0^#
0y
0x
0w
0v
0u
0t
07$
0:$
0=$
0@$
0C$
0F$
0Z"
0]"
0`"
0c"
0f"
0i"
0a#
0b#
0c#
0d#
0e#
0f#
0g#
0h#
0%"
0$"
0#"
0""
0!"
0~
0}
0|
0n#
0s#
0x#
0}#
0$$
0)$
0.$
03$
0+"
00"
05"
0:"
0?"
0D"
0I"
0N"
0l#
0k#
0q#
0p#
0v#
0u#
0{#
0z#
0"$
0!$
0'$
0&$
0,$
0+$
00$
0("
0."
0-"
03"
02"
08"
07"
0="
0<"
0B"
0A"
0G"
0F"
0L"
0K"
b0 1
b0 :%
b0 >%
b0 5
b0 =%
b0 K%
b0 R%
b0 6
b0 P
b0 S
b0 V
b0 e
b0 i
b0 '"
b0 j#
b0 J%
bx1x1x I
bx1x1x a
bx1x1x c
b0x0x0 J
b0x0x0 T
b0x0x0 [
b0 H
b0 `
b0 j
b1010 <
b1010 N
b1010 b
b1010 F%
b1010 L
b1010 W
b1010 Y
b10100 D%
#10
b0 .
b0 <%
b0 S%
b1010 I
b1010 a
b1010 c
b0 J
b0 T
b0 [
0,
#11
b1010 K
b1010 Q
b1010 Z
#12
1*
#13
b1010 %
b100 )
b100 8
b100 A%
#14
b1000 B%
b1000 C%
#15
b10100 E%
b10100 4
b10100 @%
b10100 N%
b101 :
b101 O%
b101 Q%
b101 @
b101 P%
b101 D
b101 G%
b1010000000000001010 +
b1010000000000001010 -
#16
0*
#17
b11100 D%
#20
1*
#21
b1010 &
b1000 )
b1000 8
b1000 A%
#22
b1100 B%
b1100 C%
#23
b11000 E%
b11000 4
b11000 @%
b11000 N%
b110 :
b110 O%
b110 Q%
02%
0-%
0(%
0#%
0|$
0w$
0r$
0m$
0M#
0H#
0C#
0>#
09#
04#
0/#
0*#
b10 P#
b10 k
b110 @
b110 P%
b10 >
b10 O
b10 R
b10 U
b10 X
b10 d
b10 h
b10 ;%
b10 ?
b10 9%
b100 B
b100 H%
b110 D
b110 G%
b1010 A
b1010 6%
b1010000001100000010000000010 +
b1010000001100000010000000010 -
